<?xml version="1.0" encoding="UTF-8" standalone="no"?>
<svg
   version="1.2"
   width="720.038"
   height="566.438"
   viewBox="5445 2651 19051 14987"
   preserveAspectRatio="xMidYMid"
   fill-rule="evenodd"
   stroke-width="28.222"
   stroke-linejoin="round"
   xml:space="preserve"
   id="svg2041"
   sodipodi:docname="groundwork-service-platform-concept_optimized2.svg"
   inkscape:version="1.2.1 (2ed6d7ae0b, 2022-08-22, custom)"
   xmlns:inkscape="http://www.inkscape.org/namespaces/inkscape"
   xmlns:sodipodi="http://sodipodi.sourceforge.net/DTD/sodipodi-0.dtd"
   xmlns="http://www.w3.org/2000/svg"
   xmlns:svg="http://www.w3.org/2000/svg"><defs
     id="defs2045" /><sodipodi:namedview
     id="namedview2043"
     pagecolor="#ffffff"
     bordercolor="#999999"
     borderopacity="1"
     inkscape:showpageshadow="0"
     inkscape:pageopacity="0"
     inkscape:pagecheckerboard="0"
     inkscape:deskcolor="#d1d1d1"
     showgrid="false"
     inkscape:zoom="2.4027343"
     inkscape:cx="360.21461"
     inkscape:cy="283.21899"
     inkscape:window-width="2504"
     inkscape:window-height="1563"
     inkscape:window-x="0"
     inkscape:window-y="0"
     inkscape:window-maximized="1"
     inkscape:current-layer="g1862" /><g
     class="Page"
     id="g2039"><g
       class="com.sun.star.drawing.CustomShape"
       id="g1738"><path
         class="BoundingBox"
         fill="none"
         d="M5445 2651h19051v14987H5445z"
         id="path1736" /></g><g
       class="com.sun.star.drawing.LineShape"
       id="g1744"><path
         class="BoundingBox"
         fill="none"
         d="M18091 13168h107v1377h-107z"
         id="path1740" /><path
         fill="none"
         stroke="#069"
         stroke-width="106"
         d="M18144 14491v-1270"
         id="path1742" /></g><g
       class="com.sun.star.drawing.LineShape"
       id="g1750"><path
         class="BoundingBox"
         fill="none"
         d="M22091 13168h107v1377h-107z"
         id="path1746" /><path
         fill="none"
         stroke="#069"
         stroke-width="106"
         d="M22144 14491v-1270"
         id="path1748" /></g><g
       class="TextShape"
       id="g1762"><path
         class="BoundingBox"
         fill="none"
         d="M16639 16023h3199v1213h-3199z"
         id="path1752" /><g
         aria-label="storage"
         id="text1760"
         class="SVGTextShape"><path
           d="m 17213.043,16787.551 q 0,39.299 -18.615,66.532 -18.271,26.889 -54.812,41.022 -36.541,13.79 -91.008,13.79 -40.333,0 -69.29,-5.171 -28.612,-5.171 -57.914,-17.237 v -86.871 q 31.37,14.134 67.222,23.442 36.196,8.963 63.43,8.963 30.68,0 43.78,-8.963 13.444,-9.308 13.444,-24.131 0,-9.653 -5.515,-17.237 -5.171,-7.928 -22.752,-17.581 -17.581,-9.997 -55.157,-25.854 -36.196,-15.168 -59.637,-30.681 -23.097,-15.512 -34.473,-36.541 -11.031,-21.373 -11.031,-54.122 0,-53.432 41.367,-80.321 41.712,-27.234 111.347,-27.234 35.851,0 68.256,7.24 32.749,7.239 67.221,23.096 l -31.715,75.84 q -28.612,-12.41 -54.122,-20.339 -25.165,-7.928 -51.364,-7.928 -23.097,0 -34.817,6.205 -11.721,6.205 -11.721,18.96 0,9.307 5.86,16.547 6.205,7.239 23.442,16.202 17.581,8.618 51.364,22.407 32.749,13.444 56.88,28.268 24.131,14.478 37.23,36.196 13.1,21.373 13.1,55.501 z"
           style="white-space:pre;fill:#006699"
           id="path2208" /><path
           d="m 17457.454,16825.126 q 17.236,0 33.439,-3.447 16.546,-3.448 32.749,-8.618 v 78.252 q -16.892,7.584 -42.057,12.411 -24.82,5.171 -54.467,5.171 -34.472,0 -62.051,-11.032 -27.233,-11.376 -43.09,-38.954 -15.513,-27.923 -15.513,-77.563 v -185.808 h -50.33 v -44.47 l 57.914,-35.162 30.336,-81.355 h 67.221 v 82.045 h 107.9 v 78.942 h -107.9 v 185.808 q 0,22.062 12.411,33.093 12.755,10.687 33.438,10.687 z"
           style="white-space:pre;fill:#006699"
           id="path2210" /><path
           d="m 17951.792,16708.608 q 0,48.262 -13.1,85.493 -12.755,37.23 -37.575,63.085 -24.475,25.509 -59.293,38.609 -34.472,13.1 -77.908,13.1 -40.678,0 -74.806,-13.1 -33.783,-13.1 -58.948,-38.609 -24.82,-25.855 -38.609,-63.085 -13.445,-37.231 -13.445,-85.493 0,-64.119 22.752,-108.588 22.752,-44.47 64.809,-67.567 42.057,-23.097 100.315,-23.097 54.122,0 95.834,23.097 42.057,23.097 65.843,67.567 24.131,44.469 24.131,108.588 z m -266.474,0 q 0,37.92 8.274,63.775 8.273,25.854 25.854,38.954 17.581,13.1 45.849,13.1 27.923,0 45.159,-13.1 17.581,-13.1 25.51,-38.954 8.273,-25.855 8.273,-63.775 0,-38.264 -8.273,-63.429 -7.929,-25.51 -25.51,-38.265 -17.581,-12.755 -45.849,-12.755 -41.711,0 -60.671,28.612 -18.616,28.613 -18.616,85.837 z"
           style="white-space:pre;fill:#006699"
           id="path2212" /><path
           d="m 18253.772,16509.356 q 7.929,0 18.271,1.035 10.686,0.689 17.236,2.068 l -7.928,98.592 q -5.171,-1.724 -14.824,-2.413 -9.307,-1.034 -16.202,-1.034 -20.339,0 -39.643,5.17 -18.96,5.171 -34.128,16.892 -15.168,11.376 -24.131,30.336 -8.618,18.615 -8.618,45.849 V 16902 h -105.142 v -385.404 h 79.632 l 15.513,64.808 h 5.171 q 11.375,-19.649 28.267,-35.851 17.236,-16.547 38.954,-26.199 22.063,-9.998 47.572,-9.998 z"
           style="white-space:pre;fill:#006699"
           id="path2214" /><path
           d="m 18517.144,16508.667 q 77.563,0 118.93,33.783 41.367,33.783 41.367,102.729 V 16902 h -73.426 l -20.339,-52.398 h -2.758 q -16.547,20.683 -33.783,33.783 -17.237,13.099 -39.644,19.304 -22.407,6.206 -54.467,6.206 -34.128,0 -61.361,-13.1 -26.889,-13.1 -42.401,-39.988 -15.513,-27.234 -15.513,-68.946 0,-61.361 43.091,-90.318 43.091,-29.302 129.272,-32.404 l 66.877,-2.069 v -16.891 q 0,-30.336 -15.857,-44.47 -15.858,-14.134 -44.125,-14.134 -27.923,0 -54.812,7.929 -26.888,7.929 -53.777,19.994 l -34.817,-71.014 q 30.68,-16.202 68.6,-25.509 38.265,-9.308 78.943,-9.308 z m 55.845,214.765 -40.677,1.379 q -51.02,1.378 -71.014,18.27 -19.65,16.892 -19.65,44.47 0,24.131 14.134,34.472 14.134,9.998 36.886,9.998 33.783,0 56.88,-19.995 23.441,-19.994 23.441,-56.88 z"
           style="white-space:pre;fill:#006699"
           id="path2216" /><path
           d="m 18898.411,17071.605 q -80.666,0 -123.412,-28.267 -42.401,-27.923 -42.401,-78.598 0,-34.817 21.717,-58.259 21.718,-23.441 63.775,-33.438 -16.202,-6.895 -28.268,-22.407 -12.065,-15.858 -12.065,-33.439 0,-22.062 12.755,-36.541 12.755,-14.823 36.885,-28.957 -30.335,-13.099 -48.261,-42.056 -17.581,-28.957 -17.581,-68.256 0,-42.057 18.27,-71.359 18.615,-29.646 53.778,-45.159 35.506,-15.513 86.181,-15.513 10.687,0 24.82,1.379 14.134,1.379 25.855,3.103 12.065,1.724 16.202,2.758 h 134.443 v 53.432 l -60.327,15.513 q 8.274,12.755 12.41,27.233 4.137,14.479 4.137,30.681 0,62.051 -43.435,96.868 -43.091,34.473 -119.965,34.473 -18.271,-1.034 -34.473,-2.758 -7.929,6.205 -12.065,13.1 -4.137,6.894 -4.137,14.478 0,7.584 6.205,12.755 6.55,4.826 19.305,7.584 13.099,2.413 32.404,2.413 h 65.498 q 63.43,0 96.524,27.234 33.438,27.233 33.438,79.976 0,67.567 -56.535,104.797 -56.191,37.23 -161.677,37.23 z m 4.482,-68.6 q 37.575,0 64.463,-7.239 27.234,-6.895 41.712,-19.995 14.479,-12.754 14.479,-30.68 0,-14.479 -8.618,-23.097 -8.274,-8.273 -25.51,-11.721 -16.892,-3.447 -43.436,-3.447 h -54.466 q -19.305,0 -34.818,6.205 -15.168,6.205 -24.131,17.237 -8.963,11.376 -8.963,26.199 0,21.718 20.684,34.128 21.028,12.41 58.604,12.41 z m 16.891,-292.328 q 29.647,0 43.436,-18.271 13.789,-18.27 13.789,-49.64 0,-34.818 -14.479,-52.054 -14.134,-17.581 -42.746,-17.581 -28.957,0 -43.435,17.581 -14.479,17.236 -14.479,52.054 0,31.37 14.134,49.64 14.478,18.271 43.78,18.271 z"
           style="white-space:pre;fill:#006699"
           id="path2218" /><path
           d="m 19343.453,16509.356 q 53.433,0 92.042,20.684 38.609,20.339 59.638,59.293 21.028,38.954 21.028,95.145 v 51.019 h -248.548 q 1.724,44.47 26.544,69.98 25.165,25.165 69.635,25.165 36.886,0 67.566,-7.584 30.681,-7.584 63.085,-22.752 v 81.355 q -28.612,14.134 -59.982,20.684 -31.025,6.55 -75.495,6.55 -57.914,0 -102.729,-21.374 -44.469,-21.373 -69.979,-65.153 -25.165,-43.78 -25.165,-110.312 0,-67.567 22.752,-112.381 23.096,-45.159 64.119,-67.567 41.022,-22.752 95.489,-22.752 z m 0.69,74.806 q -30.681,0 -51.02,19.65 -19.994,19.649 -23.097,61.706 h 147.543 q -0.344,-23.442 -8.618,-41.712 -7.929,-18.271 -24.131,-28.957 -15.857,-10.687 -40.677,-10.687 z"
           style="white-space:pre;fill:#006699"
           id="path2220" /></g></g><g
       class="TextShape"
       id="g1774"><path
         class="BoundingBox"
         fill="none"
         d="M20256 16023h3810v1213h-3810z"
         id="path1764" /><g
         aria-label="fediverse"
         id="text1772"
         class="SVGTextShape"><path
           d="m 20774.197,16595.538 h -91.008 V 16902 h -105.141 v -306.462 h -57.914 v -50.675 l 57.914,-28.267 v -28.268 q 0,-49.296 16.547,-76.529 16.891,-27.578 47.227,-38.61 30.681,-11.376 72.393,-11.376 30.681,0 55.846,5.171 25.165,4.827 41.022,11.032 l -26.889,77.218 q -12.065,-3.792 -26.199,-6.894 -14.134,-3.103 -32.404,-3.103 -22.063,0 -32.404,13.445 -9.998,13.099 -9.998,33.783 v 24.131 h 91.008 z"
           style="white-space:pre;fill:#006699"
           id="path2223" /><path
           d="m 20993.443,16509.356 q 53.433,0 92.042,20.684 38.61,20.339 59.638,59.293 21.028,38.954 21.028,95.145 v 51.019 h -248.547 q 1.723,44.47 26.543,69.98 25.165,25.165 69.635,25.165 36.886,0 67.567,-7.584 30.68,-7.584 63.085,-22.752 v 81.355 q -28.613,14.134 -59.983,20.684 -31.025,6.55 -75.495,6.55 -57.914,0 -102.728,-21.374 -44.47,-21.373 -69.98,-65.153 -25.165,-43.78 -25.165,-110.312 0,-67.567 22.752,-112.381 23.097,-45.159 64.119,-67.567 41.023,-22.752 95.489,-22.752 z m 0.69,74.806 q -30.681,0 -51.02,19.65 -19.994,19.649 -23.096,61.706 h 147.543 q -0.345,-23.442 -8.619,-41.712 -7.928,-18.271 -24.13,-28.957 -15.858,-10.687 -40.678,-10.687 z"
           style="white-space:pre;fill:#006699"
           id="path2225" /><path
           d="m 21373.677,16908.895 q -64.464,0 -105.142,-50.331 -40.333,-50.674 -40.333,-148.577 0,-98.936 41.023,-149.611 41.022,-51.02 107.21,-51.02 27.578,0 48.606,7.584 21.028,7.584 36.196,20.339 15.513,12.755 26.2,28.613 h 3.447 q -2.069,-11.032 -5.171,-32.405 -2.758,-21.717 -2.758,-44.469 v -123.413 h 105.486 V 16902 h -80.666 l -20.338,-49.985 h -4.482 q -9.997,15.857 -25.165,28.957 -14.823,12.755 -35.507,20.339 -20.683,7.584 -48.606,7.584 z m 36.885,-83.769 q 43.091,0 60.672,-25.51 17.926,-25.854 18.96,-77.563 v -11.376 q 0,-56.191 -17.236,-85.837 -17.236,-29.991 -64.119,-29.991 -34.818,0 -54.467,29.991 -19.649,29.991 -19.649,86.526 0,56.535 19.649,85.148 19.994,28.612 56.19,28.612 z"
           style="white-space:pre;fill:#006699"
           id="path2227" /><path
           d="M 21803.551,16516.596 V 16902 h -105.142 v -385.404 z m -52.399,-150.991 q 23.442,0 40.333,11.032 16.892,10.686 16.892,40.333 0,29.301 -16.892,40.677 -16.891,11.032 -40.333,11.032 -23.786,0 -40.677,-11.032 -16.547,-11.376 -16.547,-40.677 0,-29.647 16.547,-40.333 16.891,-11.032 40.677,-11.032 z"
           style="white-space:pre;fill:#006699"
           id="path2229" /><path
           d="m 22005.561,16902 -146.854,-385.404 h 109.968 l 74.461,219.591 q 6.205,19.304 9.652,40.677 3.792,21.373 5.171,38.265 h 2.758 q 1.034,-18.271 4.826,-38.954 4.137,-20.684 10.686,-39.988 l 74.117,-219.591 h 109.967 L 22113.46,16902 Z"
           style="white-space:pre;fill:#006699"
           id="path2231" /><path
           d="m 22474.389,16509.356 q 53.432,0 92.042,20.684 38.609,20.339 59.637,59.293 21.029,38.954 21.029,95.145 v 51.019 h -248.548 q 1.723,44.47 26.544,69.98 25.165,25.165 69.635,25.165 36.885,0 67.566,-7.584 30.681,-7.584 63.085,-22.752 v 81.355 q -28.612,14.134 -59.983,20.684 -31.025,6.55 -75.495,6.55 -57.914,0 -102.728,-21.374 -44.47,-21.373 -69.98,-65.153 -25.165,-43.78 -25.165,-110.312 0,-67.567 22.752,-112.381 23.097,-45.159 64.119,-67.567 41.023,-22.752 95.49,-22.752 z m 0.689,74.806 q -30.681,0 -51.019,19.65 -19.995,19.649 -23.097,61.706 h 147.543 q -0.345,-23.442 -8.618,-41.712 -7.929,-18.271 -24.131,-28.957 -15.858,-10.687 -40.678,-10.687 z"
           style="white-space:pre;fill:#006699"
           id="path2233" /><path
           d="m 22947.698,16509.356 q 7.929,0 18.271,1.035 10.686,0.689 17.236,2.068 l -7.929,98.592 q -5.171,-1.724 -14.823,-2.413 -9.307,-1.034 -16.202,-1.034 -20.339,0 -39.644,5.17 -18.96,5.171 -34.128,16.892 -15.167,11.376 -24.13,30.336 -8.619,18.615 -8.619,45.849 V 16902 h -105.141 v -385.404 h 79.632 l 15.512,64.808 h 5.171 q 11.376,-19.649 28.268,-35.851 17.236,-16.547 38.954,-26.199 22.062,-9.998 47.572,-9.998 z"
           style="white-space:pre;fill:#006699"
           id="path2235" /><path
           d="m 23322.071,16787.551 q 0,39.299 -18.615,66.532 -18.27,26.889 -54.811,41.022 -36.541,13.79 -91.008,13.79 -40.333,0 -69.29,-5.171 -28.613,-5.171 -57.914,-17.237 v -86.871 q 31.37,14.134 67.221,23.442 36.197,8.963 63.43,8.963 30.681,0 43.78,-8.963 13.445,-9.308 13.445,-24.131 0,-9.653 -5.516,-17.237 -5.171,-7.928 -22.752,-17.581 -17.581,-9.997 -55.156,-25.854 -36.197,-15.168 -59.638,-30.681 -23.097,-15.512 -34.473,-36.541 -11.031,-21.373 -11.031,-54.122 0,-53.432 41.367,-80.321 41.712,-27.234 111.347,-27.234 35.852,0 68.256,7.24 32.749,7.239 67.222,23.096 l -31.715,75.84 q -28.613,-12.41 -54.122,-20.339 -25.165,-7.928 -51.365,-7.928 -23.096,0 -34.817,6.205 -11.721,6.205 -11.721,18.96 0,9.307 5.861,16.547 6.205,7.239 23.441,16.202 17.581,8.618 51.364,22.407 32.749,13.444 56.88,28.268 24.131,14.478 37.231,36.196 13.099,21.373 13.099,55.501 z"
           style="white-space:pre;fill:#006699"
           id="path2237" /><path
           d="m 23563.035,16509.356 q 53.433,0 92.042,20.684 38.61,20.339 59.638,59.293 21.028,38.954 21.028,95.145 v 51.019 h -248.548 q 1.724,44.47 26.544,69.98 25.165,25.165 69.635,25.165 36.886,0 67.566,-7.584 30.681,-7.584 63.085,-22.752 v 81.355 q -28.612,14.134 -59.982,20.684 -31.025,6.55 -75.495,6.55 -57.914,0 -102.729,-21.374 -44.469,-21.373 -69.979,-65.153 -25.165,-43.78 -25.165,-110.312 0,-67.567 22.752,-112.381 23.096,-45.159 64.119,-67.567 41.022,-22.752 95.489,-22.752 z m 0.69,74.806 q -30.681,0 -51.02,19.65 -19.994,19.649 -23.097,61.706 h 147.543 q -0.344,-23.442 -8.618,-41.712 -7.929,-18.271 -24.131,-28.957 -15.857,-10.687 -40.677,-10.687 z"
           style="white-space:pre;fill:#006699"
           id="path2239" /></g></g><g
       class="com.sun.star.drawing.CustomShape"
       id="g1786"><path
         class="BoundingBox"
         fill="none"
         d="M17155 14462h2013v1631h-2013z"
         id="path1776" /><path
         fill="#FFF"
         d="M18161 14515c-520 0-953 86-953 190v1144c0 104 433 190 953 190 519 0 953-86 953-190v-1144c0-104-434-190-953-190Z"
         id="path1778" /><path
         fill="none"
         stroke="#069"
         stroke-width="106"
         d="M18161 14515c-520 0-953 86-953 190v1144c0 104 433 190 953 190 519 0 953-86 953-190v-1144c0-104-434-190-953-190Z"
         id="path1780" /><path
         fill="#FFF"
         d="M18161 14515c-520 0-953 86-953 190s433 191 953 191c519 0 953-87 953-191s-434-190-953-190Z"
         id="path1782" /><path
         fill="none"
         stroke="#069"
         stroke-width="106"
         d="M18161 14515c-520 0-953 86-953 190s433 191 953 191c519 0 953-87 953-191s-434-190-953-190Z"
         id="path1784" /></g><g
       class="com.sun.star.drawing.CustomShape"
       id="g1796"><path
         class="BoundingBox"
         fill="none"
         d="M20987 14401h2267v1759h-2267z"
         id="path1788" /><path
         fill="#FFF"
         d="M21233 15001c-40-204 147-397 334-397 59-1 120 19 170 48 48-92 137-149 237-149 66 3 137 31 187 81 36-82 112-130 194-130 69 0 132 35 172 88 46-55 115-88 187-88 117 0 216 86 237 207 113 33 195 143 195 268 0 38-6 75-23 110 48 62 77 137 77 214 0 176-129 323-295 348 0 168-128 300-288 300-55 0-107-17-153-47-42 147-175 252-324 252-111 0-216-62-279-160-59 37-28 59-197 59-139 0-267-77-334-202-160-3-242-103-242-228 0-58 21-111 59-155-69-36-107-109-107-193 0-117 84-213 193-226Z"
         id="path1790" /><path
         fill="none"
         stroke="#3465A4"
         stroke-width="106"
         d="M21233 15001c-40-204 147-397 334-397 59-1 120 19 170 48 48-92 137-149 237-149 66 3 137 31 187 81 36-82 112-130 194-130 69 0 132 35 172 88 46-55 115-88 187-88 117 0 216 86 237 207 113 33 195 143 195 268 0 38-6 75-23 110 48 62 77 137 77 214 0 176-129 323-295 348 0 168-128 300-288 300-55 0-107-17-153-47-42 147-175 252-324 252-111 0-216-62-279-160-59 37-28 59-197 59-139 0-267-77-334-202-160-3-242-103-242-228 0-58 21-111 59-155-69-36-107-109-107-193 0-117 84-213 193-226Z"
         id="path1792" /><path
         fill="none"
         stroke="#3465A4"
         stroke-width="106"
         d="M21233 15001c2 19 11 41 16 58M21737 14652c23 15 51 35 70 55M22161 14584c-8 16-13 35-18 53M22527 14542c-15 19-23 43-33 65M22951 14661c2 14 12 44 8 51M23123 15039c-17 39-40 74-72 102M22906 15601c8-61-38-214-166-272M22464 15854c8-25 11-48 13-73M21862 15946c-16-20-26-43-36-67M21330 15803c19-3 38-8 56-15M21147 15420c33 20 71 38 126 31"
         id="path1794" /></g><g
       class="com.sun.star.drawing.LineShape"
       id="g1802"><path
         class="BoundingBox"
         fill="none"
         d="M9850 6379h8639v3H9850z"
         id="path1798" /><path
         fill="none"
         stroke="#666"
         d="M9851 6380h8636"
         id="path1800" /></g><g
       class="com.sun.star.drawing.CustomShape"
       id="g1810"><path
         class="BoundingBox"
         fill="none"
         d="M16470 6335h7209v2266h-7209z"
         id="path1804" /><path
         fill="#F90"
         d="M20074 8547h-3551V6388h7102v2159h-3551Z"
         id="path1806" /><path
         fill="none"
         stroke="#F90"
         stroke-width="106"
         d="M20074 8547h-3551V6388h7102v2159h-3551Z"
         id="path1808" /></g><g
       class="TextShape"
       id="g1822"><path
         class="BoundingBox"
         fill="none"
         d="M13042 7069h3234v1213h-3234z"
         id="path1812" /><g
         aria-label="present"
         id="text1820"
         class="SVGTextShape"><path
           d="m 13562.576,7556.3564 q 65.153,0 105.142,50.6748 40.333,50.6749 40.333,148.5772 0,65.498 -18.96,110.3125 -18.96,44.4697 -52.399,67.2217 -33.438,22.7519 -76.874,22.7519 -27.922,0 -47.917,-6.8945 -19.994,-7.2393 -34.128,-18.2705 -14.133,-11.376 -24.475,-24.1309 h -5.516 q 2.758,13.7891 4.137,28.2676 1.379,14.4785 1.379,28.2676 v 155.4717 h -105.142 v -555.0098 h 85.492 l 14.824,49.9854 h 4.826 q 10.342,-15.5127 25.165,-28.6124 14.823,-13.0996 35.507,-20.6835 21.028,-7.9288 48.606,-7.9288 z m -33.783,84.1133 q -27.578,0 -43.78,11.376 -16.202,11.376 -23.786,34.1279 -7.24,22.752 -7.929,57.5694 v 11.3759 q 0,37.2305 6.894,63.085 7.24,25.8545 23.787,39.2988 16.891,13.4444 46.193,13.4444 24.131,0 39.643,-13.4444 15.513,-13.4443 23.097,-39.2988 7.929,-26.1992 7.929,-63.7744 0,-56.5352 -17.581,-85.1475 -17.581,-28.6123 -54.467,-28.6123 z"
           style="white-space:pre;fill:#666666"
           id="path2149" /><path
           d="m 14010.031,7556.3564 q 7.929,0 18.271,1.0342 10.686,0.6895 17.236,2.0684 l -7.929,98.5918 q -5.171,-1.7237 -14.823,-2.4131 -9.307,-1.0342 -16.202,-1.0342 -20.339,0 -39.644,5.1709 -18.96,5.1709 -34.127,16.8916 -15.168,11.376 -24.131,30.336 -8.619,18.6152 -8.619,45.8486 V 7949 h -105.141 v -385.4043 h 79.632 l 15.512,64.8086 h 5.171 q 11.376,-19.6494 28.268,-35.8516 17.236,-16.5468 38.954,-26.1992 22.062,-9.9971 47.572,-9.9971 z"
           style="white-space:pre;fill:#666666"
           id="path2151" /><path
           d="m 14274.437,7556.3564 q 53.432,0 92.042,20.6836 38.609,20.3389 59.637,59.293 21.029,38.9541 21.029,95.1445 v 51.0196 h -248.548 q 1.723,44.4697 26.544,69.9795 25.165,25.165 69.634,25.165 36.886,0 67.567,-7.584 30.68,-7.584 63.085,-22.7519 v 81.3554 q -28.613,14.1338 -59.983,20.6836 -31.025,6.5498 -75.495,6.5498 -57.914,0 -102.728,-21.373 -44.47,-21.3731 -69.98,-65.1533 -25.165,-43.7803 -25.165,-110.3125 0,-67.5664 22.752,-112.3809 23.097,-45.1592 64.119,-67.5664 41.023,-22.752 95.49,-22.752 z m 0.689,74.8057 q -30.681,0 -51.02,19.6494 -19.994,19.6494 -23.096,61.7061 h 147.543 q -0.345,-23.4414 -8.618,-41.7119 -7.929,-18.2705 -24.131,-28.9571 -15.858,-10.6865 -40.678,-10.6865 z"
           style="white-space:pre;fill:#666666"
           id="path2153" /><path
           d="m 14801.523,7834.5508 q 0,39.2988 -18.615,66.5322 -18.27,26.8887 -54.811,41.0225 -36.541,13.789 -91.008,13.789 -40.333,0 -69.29,-5.1709 -28.612,-5.1709 -57.914,-17.2363 v -86.8711 q 31.37,14.1338 67.221,23.4414 36.197,8.9629 63.43,8.9629 30.681,0 43.78,-8.9629 13.445,-9.3076 13.445,-24.1308 0,-9.6524 -5.516,-17.2364 -5.171,-7.9287 -22.752,-17.581 -17.581,-9.9971 -55.156,-25.8545 -36.196,-15.168 -59.638,-30.6807 -23.096,-15.5127 -34.472,-36.541 -11.032,-21.373 -11.032,-54.1221 0,-53.4326 41.368,-80.3213 41.711,-27.2334 111.346,-27.2334 35.852,0 68.256,7.2393 32.749,7.2393 67.222,23.0967 l -31.715,75.8398 q -28.612,-12.4101 -54.122,-20.3388 -25.165,-7.9288 -51.364,-7.9288 -23.097,0 -34.818,6.2051 -11.721,6.2051 -11.721,18.96 0,9.3076 5.861,16.5469 6.205,7.2392 23.441,16.2021 17.581,8.6182 51.364,22.4072 32.75,13.4444 56.88,28.2676 24.131,14.4785 37.231,36.1963 13.099,21.3731 13.099,55.501 z"
           style="white-space:pre;fill:#666666"
           id="path2155" /><path
           d="m 15042.487,7556.3564 q 53.433,0 92.042,20.6836 38.61,20.3389 59.638,59.293 21.028,38.9541 21.028,95.1445 v 51.0196 h -248.548 q 1.724,44.4697 26.544,69.9795 25.165,25.165 69.635,25.165 36.886,0 67.567,-7.584 30.68,-7.584 63.085,-22.7519 v 81.3554 q -28.613,14.1338 -59.983,20.6836 -31.025,6.5498 -75.495,6.5498 -57.914,0 -102.729,-21.373 -44.469,-21.3731 -69.979,-65.1533 -25.165,-43.7803 -25.165,-110.3125 0,-67.5664 22.752,-112.3809 23.097,-45.1592 64.119,-67.5664 41.023,-22.752 95.489,-22.752 z m 0.69,74.8057 q -30.681,0 -51.02,19.6494 -19.994,19.6494 -23.096,61.7061 h 147.543 q -0.345,-23.4414 -8.619,-41.7119 -7.928,-18.2705 -24.131,-28.9571 -15.857,-10.6865 -40.677,-10.6865 z"
           style="white-space:pre;fill:#666666"
           id="path2157" /><path
           d="m 15519.589,7556.3564 q 61.706,0 99.281,33.7832 37.575,33.4385 37.575,107.5547 V 7949 h -105.141 v -225.1064 q 0,-41.3672 -15.168,-62.3956 -14.823,-21.0283 -46.883,-21.0283 -48.262,0 -65.843,32.749 -17.581,32.7491 -17.581,94.4551 V 7949 h -105.141 v -385.4043 h 80.321 l 14.134,49.2959 h 5.86 q 12.41,-19.9941 30.681,-32.4043 18.615,-12.4102 41.022,-18.2705 22.752,-5.8604 46.883,-5.8604 z"
           style="white-space:pre;fill:#666666"
           id="path2159" /><path
           d="m 15927.056,7872.126 q 17.236,0 33.438,-3.4473 16.547,-3.4473 32.749,-8.6182 v 78.253 q -16.891,7.584 -42.056,12.4101 -24.821,5.1709 -54.467,5.1709 -34.473,0 -62.051,-11.0312 -27.233,-11.376 -43.091,-38.9541 -15.513,-27.9229 -15.513,-77.5635 v -185.8076 h -50.33 v -44.4697 l 57.914,-35.1622 30.336,-81.3554 h 67.222 v 82.0449 h 107.899 v 78.9424 h -107.899 v 185.8076 q 0,22.0625 12.41,33.0938 12.755,10.6865 33.439,10.6865 z"
           style="white-space:pre;fill:#666666"
           id="path2161" /></g></g><g
       class="TextShape"
       id="g1834"><path
         class="BoundingBox"
         fill="none"
         d="M11730 9596h4546v1213h-4546z"
         id="path1824" /><g
         aria-label="meaningful"
         id="text1832"
         class="SVGTextShape"><path
           d="m 12487.782,10082.356 q 65.498,0 98.937,33.784 33.783,33.438 33.783,107.554 V 10475 h -105.486 v -225.106 q 0,-41.368 -14.134,-62.396 -14.134,-21.028 -43.78,-21.028 -41.712,0 -59.293,29.991 -17.581,29.646 -17.581,85.147 V 10475 h -105.142 v -225.106 q 0,-27.579 -6.205,-46.194 -6.205,-18.615 -18.96,-27.923 -12.755,-9.307 -32.749,-9.307 -29.302,0 -46.193,14.823 -16.547,14.478 -23.787,43.091 -6.894,28.267 -6.894,69.29 V 10475 h -105.142 v -385.404 h 80.322 l 14.133,49.296 h 5.861 q 11.72,-19.995 29.301,-32.405 17.926,-12.41 39.299,-18.27 21.373,-5.861 43.436,-5.861 42.401,0 71.703,13.79 29.646,13.789 45.504,42.746 h 9.307 q 17.237,-29.647 48.607,-43.091 31.715,-13.445 65.153,-13.445 z"
           style="white-space:pre;fill:#666666"
           id="path2164" /><path
           d="m 12887.32,10082.356 q 53.433,0 92.042,20.684 38.61,20.339 59.638,59.293 21.028,38.954 21.028,95.145 v 51.019 h -248.548 q 1.724,44.47 26.544,69.98 25.165,25.165 69.635,25.165 36.886,0 67.567,-7.584 30.68,-7.584 63.085,-22.752 v 81.355 q -28.613,14.134 -59.983,20.684 -31.025,6.55 -75.495,6.55 -57.914,0 -102.729,-21.374 -44.469,-21.373 -69.979,-65.153 -25.165,-43.78 -25.165,-110.312 0,-67.567 22.752,-112.381 23.097,-45.159 64.119,-67.567 41.023,-22.752 95.489,-22.752 z m 0.69,74.806 q -30.681,0 -51.02,19.65 -19.994,19.649 -23.096,61.706 h 147.543 q -0.345,-23.442 -8.619,-41.712 -7.928,-18.271 -24.13,-28.957 -15.858,-10.687 -40.678,-10.687 z"
           style="white-space:pre;fill:#666666"
           id="path2166" /><path
           d="m 13303.405,10081.667 q 77.564,0 118.931,33.783 41.367,33.783 41.367,102.729 V 10475 h -73.427 l -20.338,-52.398 h -2.758 q -16.547,20.683 -33.784,33.783 -17.236,13.099 -39.643,19.304 -22.407,6.206 -54.467,6.206 -34.128,0 -61.361,-13.1 -26.889,-13.1 -42.402,-39.988 -15.512,-27.234 -15.512,-68.946 0,-61.361 43.091,-90.318 43.09,-29.302 129.272,-32.404 l 66.877,-2.069 v -16.891 q 0,-30.336 -15.857,-44.47 -15.858,-14.134 -44.125,-14.134 -27.923,0 -54.812,7.929 -26.889,7.929 -53.777,19.994 l -34.818,-71.014 q 30.681,-16.202 68.601,-25.509 38.265,-9.308 78.942,-9.308 z m 55.846,214.765 -40.678,1.379 q -51.019,1.378 -71.013,18.27 -19.65,16.892 -19.65,44.47 0,24.131 14.134,34.472 14.134,9.998 36.886,9.998 33.783,0 56.88,-19.995 23.441,-19.994 23.441,-56.88 z"
           style="white-space:pre;fill:#666666"
           id="path2168" /><path
           d="m 13790.849,10082.356 q 61.706,0 99.281,33.784 37.575,33.438 37.575,107.554 V 10475 h -105.142 v -225.106 q 0,-41.368 -15.167,-62.396 -14.824,-21.028 -46.883,-21.028 -48.262,0 -65.843,32.749 -17.581,32.749 -17.581,94.455 V 10475 h -105.142 v -385.404 h 80.322 l 14.133,49.296 h 5.861 q 12.41,-19.995 30.68,-32.405 18.616,-12.41 41.023,-18.27 22.752,-5.861 46.883,-5.861 z"
           style="white-space:pre;fill:#666666"
           id="path2170" /><path
           d="M 14141.091,10089.596 V 10475 h -105.142 v -385.404 z m -52.399,-150.9905 q 23.442,0 40.333,11.0312 16.892,10.6865 16.892,40.333 0,29.3013 -16.892,40.6773 -16.891,11.032 -40.333,11.032 -23.786,0 -40.677,-11.032 -16.547,-11.376 -16.547,-40.6773 0,-29.6465 16.547,-40.333 16.891,-11.0312 40.677,-11.0312 z"
           style="white-space:pre;fill:#666666"
           id="path2172" /><path
           d="m 14470.305,10082.356 q 61.706,0 99.281,33.784 37.575,33.438 37.575,107.554 V 10475 h -105.141 v -225.106 q 0,-41.368 -15.168,-62.396 -14.824,-21.028 -46.883,-21.028 -48.262,0 -65.843,32.749 -17.581,32.749 -17.581,94.455 V 10475 h -105.142 v -385.404 h 80.322 l 14.133,49.296 h 5.861 q 12.41,-19.995 30.68,-32.405 18.616,-12.41 41.023,-18.27 22.752,-5.861 46.883,-5.861 z"
           style="white-space:pre;fill:#666666"
           id="path2174" /><path
           d="m 14828.131,10644.605 q -80.666,0 -123.412,-28.267 -42.402,-27.923 -42.402,-78.598 0,-34.817 21.718,-58.259 21.718,-23.441 63.775,-33.438 -16.203,-6.895 -28.268,-22.407 -12.065,-15.858 -12.065,-33.439 0,-22.062 12.754,-36.541 12.755,-14.823 36.886,-28.957 -30.336,-13.099 -48.262,-42.056 -17.581,-28.957 -17.581,-68.256 0,-42.057 18.271,-71.359 18.615,-29.646 53.777,-45.159 35.507,-15.513 86.182,-15.513 10.686,0 24.82,1.379 14.134,1.379 25.855,3.103 12.065,1.724 16.202,2.758 h 134.443 v 53.432 l -60.327,15.513 q 8.274,12.755 12.41,27.233 4.137,14.479 4.137,30.681 0,62.051 -43.436,96.868 -43.09,34.473 -119.964,34.473 -18.271,-1.034 -34.473,-2.758 -7.929,6.205 -12.066,13.1 -4.136,6.894 -4.136,14.478 0,7.584 6.205,12.755 6.55,4.826 19.305,7.584 13.099,2.413 32.404,2.413 h 65.498 q 63.43,0 96.523,27.234 33.439,27.233 33.439,79.976 0,67.567 -56.535,104.797 -56.191,37.23 -161.677,37.23 z m 4.481,-68.6 q 37.576,0 64.464,-7.239 27.234,-6.895 41.712,-19.995 14.479,-12.754 14.479,-30.68 0,-14.479 -8.619,-23.097 -8.273,-8.273 -25.509,-11.721 -16.892,-3.447 -43.436,-3.447 h -54.467 q -19.304,0 -34.817,6.205 -15.168,6.205 -24.131,17.237 -8.963,11.376 -8.963,26.199 0,21.718 20.684,34.128 21.028,12.41 58.603,12.41 z m 16.892,-292.328 q 29.646,0 43.435,-18.271 13.79,-18.27 13.79,-49.64 0,-34.818 -14.479,-52.054 -14.134,-17.581 -42.746,-17.581 -28.957,0 -43.436,17.581 -14.478,17.236 -14.478,52.054 0,31.37 14.134,49.64 14.478,18.271 43.78,18.271 z"
           style="white-space:pre;fill:#666666"
           id="path2176" /><path
           d="m 15327.295,10168.538 h -91.008 V 10475 h -105.141 v -306.462 h -57.915 v -50.675 l 57.915,-28.267 v -28.268 q 0,-49.296 16.546,-76.5292 16.892,-27.5781 47.228,-38.6093 30.681,-11.376 72.393,-11.376 30.68,0 55.845,5.1709 25.165,4.8261 41.023,11.0312 l -26.889,77.2184 q -12.065,-3.792 -26.199,-6.894 -14.134,-3.103 -32.405,-3.103 -22.062,0 -32.404,13.445 -9.997,13.099 -9.997,33.783 v 24.131 h 91.008 z"
           style="white-space:pre;fill:#666666"
           id="path2178" /><path
           d="M 15741.312,10089.596 V 10475 h -80.666 l -14.134,-49.296 h -5.516 q -12.41,19.65 -31.025,32.06 -18.616,12.41 -41.023,18.27 -22.407,5.861 -46.538,5.861 -41.367,0 -72.048,-14.479 -30.68,-14.823 -47.917,-45.849 -16.891,-31.025 -16.891,-80.666 v -251.305 h 105.141 v 225.106 q 0,41.367 14.824,62.396 14.823,21.028 47.227,21.028 32.06,0 50.33,-14.479 18.271,-14.823 25.51,-43.09 7.584,-28.613 7.584,-69.635 v -181.326 z"
           style="white-space:pre;fill:#666666"
           id="path2180" /><path
           d="m 15956.766,10475 h -105.142 v -536.3945 h 105.142 z"
           style="white-space:pre;fill:#666666"
           id="path2182" /></g></g><g
       class="com.sun.star.drawing.CustomShape"
       id="g1862"><path
         class="BoundingBox"
         fill="none"
         d="M6251 6341h4967v7518H6251z"
         id="path1836" /><path
         fill="#444"
         d="M8734 13805H6304V6394h4860v7411H8734Z"
         id="path1838" /><path
         fill="none"
         stroke="#444"
         stroke-width="106"
         d="M8734 13805H6304V6394h4860v7411H8734Z"
         id="path1840" /><g
         aria-label="federatedserviceplatform"
         id="text1860"
         class="SVGTextShape"><path
           d="m 7411.2256,9205.3579 h -81.8555 V 9481 h -94.5679 v -275.6421 h -52.0898 v -45.5786 l 52.0898,-25.4248 v -25.4248 q 0,-44.3384 14.8829,-68.833 15.1928,-24.8047 42.478,-34.7266 27.5952,-10.2319 65.1123,-10.2319 27.5952,0 50.2295,4.6509 22.6343,4.3408 36.897,9.9218 l -24.1846,69.4532 q -10.8521,-3.4107 -23.5645,-6.2012 -12.7124,-2.7905 -29.1455,-2.7905 -19.8437,0 -29.1455,12.0922 -8.9917,11.7823 -8.9917,30.3858 v 21.7041 h 81.8555 z"
           style="white-space:pre;fill:#ffffff"
           id="path2242" /><path
           d="m 7608.4229,9127.8433 q 48.059,0 82.7856,18.6035 34.7266,18.2934 53.6401,53.3301 18.9136,35.0366 18.9136,85.5761 v 45.8887 H 7540.21 q 1.5503,39.9976 23.8745,62.9419 22.6342,22.6343 62.6318,22.6343 33.1763,0 60.7715,-6.8213 27.5952,-6.8213 56.7407,-20.4639 v 73.1738 q -25.7348,12.7124 -53.9502,18.6036 -27.9053,5.8911 -67.9028,5.8911 -52.0899,0 -92.3975,-19.2237 -39.9975,-19.2236 -62.9419,-58.601 -22.6342,-39.3775 -22.6342,-99.2188 0,-60.7715 20.4638,-101.0791 20.7739,-40.6177 57.6709,-60.7715 36.897,-20.4638 85.8863,-20.4638 z m 0.6201,67.2827 q -27.5952,0 -45.8887,17.6733 -17.9834,17.6734 -20.7739,55.5005 h 132.705 q -0.31,-21.084 -7.7514,-37.5171 -7.1314,-16.4331 -21.7041,-26.0449 -14.2627,-9.6118 -36.5869,-9.6118 z"
           style="white-space:pre;fill:#ffffff"
           id="path2244" /><path
           d="m 7950.4175,9487.2012 q -57.981,0 -94.5679,-45.2686 -36.2768,-45.5786 -36.2768,-133.6352 0,-88.9869 36.8969,-134.5655 36.897,-45.8886 96.4282,-45.8886 24.8047,0 43.7183,6.8213 18.9136,6.8212 32.5562,18.2934 13.9526,11.4722 23.5644,25.7349 h 3.1006 q -1.8603,-9.9219 -4.6509,-29.1455 -2.4804,-19.5337 -2.4804,-39.9976 v -111.001 h 94.8779 V 9481 h -72.5537 l -18.2935,-44.9585 h -4.0307 q -8.9917,14.2627 -22.6343,26.0449 -13.3325,11.4722 -31.9361,18.2935 -18.6035,6.8213 -43.7182,6.8213 z m 33.1762,-75.3443 q 38.7574,0 54.5704,-22.9443 16.123,-23.2544 17.0532,-69.7632 v -10.2319 q 0,-50.5396 -15.5029,-77.2046 -15.503,-26.9751 -57.6709,-26.9751 -31.316,0 -48.9893,26.9751 -17.6733,26.9751 -17.6733,77.8247 0,50.8496 17.6733,76.5845 17.9834,25.7348 50.5395,25.7348 z"
           style="white-space:pre;fill:#ffffff"
           id="path2246" /><path
           d="m 8385.4297,9127.8433 q 48.0591,0 82.7856,18.6035 34.7266,18.2934 53.6402,53.3301 18.9135,35.0366 18.9135,85.5761 v 45.8887 h -223.5522 q 1.5503,39.9976 23.8745,62.9419 22.6343,22.6343 62.6318,22.6343 33.1763,0 60.7715,-6.8213 27.5952,-6.8213 56.7408,-20.4639 v 73.1738 q -25.7349,12.7124 -53.9502,18.6036 -27.9053,5.8911 -67.9029,5.8911 -52.0898,0 -92.3974,-19.2237 -39.9976,-19.2236 -62.9419,-58.601 -22.6343,-39.3775 -22.6343,-99.2188 0,-60.7715 20.4639,-101.0791 20.7739,-40.6177 57.6709,-60.7715 36.8969,-20.4638 85.8862,-20.4638 z m 0.6201,67.2827 q -27.5952,0 -45.8887,17.6733 -17.9834,17.6734 -20.7739,55.5005 h 132.7051 q -0.3101,-21.084 -7.7515,-37.5171 -7.1313,-16.4331 -21.7041,-26.0449 -14.2627,-9.6118 -36.5869,-9.6118 z"
           style="white-space:pre;fill:#ffffff"
           id="path2248" /><path
           d="m 8811.1401,9127.8433 q 7.1314,0 16.4331,0.9301 9.6119,0.6202 15.503,1.8604 l -7.1314,88.6767 q -4.6509,-1.5502 -13.3325,-2.1704 -8.3716,-0.9301 -14.5727,-0.9301 -18.2935,0 -35.6568,4.6508 -17.0532,4.6509 -30.6958,15.1929 -13.6426,10.2319 -21.7041,27.2852 -7.7515,16.7431 -7.7515,41.2378 V 9481 h -94.5678 v -346.6455 h 71.6235 l 13.9526,58.291 h 4.6509 q 10.232,-17.6733 25.4248,-32.2461 15.503,-14.8828 35.0367,-23.5644 19.8437,-8.9917 42.788,-8.9917 z"
           style="white-space:pre;fill:#ffffff"
           id="path2250" /><path
           d="m 9048.0249,9127.2231 q 69.7632,0 106.9702,30.3858 37.207,30.3857 37.207,92.3974 V 9481 h -66.0424 l -18.2935,-47.1289 h -2.4805 q -14.8828,18.6035 -30.3857,30.3857 -15.5029,11.7823 -35.6567,17.3633 -20.1538,5.5811 -48.9893,5.5811 -30.6958,0 -55.1904,-11.7823 -24.1846,-11.7822 -38.1372,-35.9668 -13.9527,-24.4946 -13.9527,-62.0117 0,-55.1904 38.7574,-81.2353 38.7573,-26.355 116.2719,-29.1455 l 60.1514,-1.8604 v -15.1929 q 0,-27.2851 -14.2627,-39.9975 -14.2627,-12.7124 -39.6875,-12.7124 -25.1147,0 -49.2993,7.1313 -24.1846,7.1314 -48.3692,17.9834 l -31.3159,-63.872 q 27.5952,-14.5728 61.7017,-22.9444 34.4165,-8.3716 71.0034,-8.3716 z m 50.2295,193.1665 -36.5869,1.2403 q -45.8887,1.2402 -63.8721,16.4331 -17.6733,15.1929 -17.6733,39.9975 0,21.7041 12.7124,31.0059 12.7124,8.9917 33.1762,8.9917 30.3858,0 51.1597,-17.9834 21.084,-17.9834 21.084,-51.1597 z"
           style="white-space:pre;fill:#ffffff"
           id="path2252" /><path
           d="m 9435.5981,9411.8569 q 15.503,0 30.0757,-3.1006 14.8828,-3.1005 29.4556,-7.7514 v 70.3833 q -15.1929,6.8213 -37.8272,11.1621 -22.3242,4.6509 -48.9892,4.6509 -31.0059,0 -55.8106,-9.9219 -24.4946,-10.2319 -38.7573,-35.0366 -13.9526,-25.1148 -13.9526,-69.7632 v -167.1216 h -45.2686 v -39.9975 l 52.0899,-31.626 27.2851,-73.1739 h 60.4615 v 73.794 h 97.0483 v 71.0034 h -97.0483 v 167.1216 q 0,19.8437 11.1621,29.7656 11.4721,9.6118 30.0756,9.6118 z"
           style="white-space:pre;fill:#ffffff"
           id="path2254" /><path
           d="m 9708.1396,9127.8433 q 48.0591,0 82.7857,18.6035 34.7266,18.2934 53.6401,53.3301 18.9136,35.0366 18.9136,85.5761 v 45.8887 h -223.5522 q 1.5503,39.9976 23.8745,62.9419 22.6342,22.6343 62.6318,22.6343 33.1763,0 60.7715,-6.8213 27.5952,-6.8213 56.7407,-20.4639 v 73.1738 q -25.7349,12.7124 -53.9502,18.6036 -27.9053,5.8911 -67.9028,5.8911 -52.0899,0 -92.3975,-19.2237 -39.9975,-19.2236 -62.9419,-58.601 -22.6342,-39.3775 -22.6342,-99.2188 0,-60.7715 20.4638,-101.0791 20.7739,-40.6177 57.6709,-60.7715 36.897,-20.4638 85.8862,-20.4638 z m 0.6202,67.2827 q -27.5952,0 -45.8887,17.6733 -17.9834,17.6734 -20.7739,55.5005 h 132.705 q -0.31,-21.084 -7.7514,-37.5171 -7.1314,-16.4331 -21.7041,-26.0449 -14.2627,-9.6118 -36.5869,-9.6118 z"
           style="white-space:pre;fill:#ffffff"
           id="path2256" /><path
           d="m 10050.134,9487.2012 q -57.9807,0 -94.5676,-45.2686 -36.2768,-45.5786 -36.2768,-133.6352 0,-88.9869 36.8969,-134.5655 36.897,-45.8886 96.4285,-45.8886 24.804,0 43.718,6.8213 18.914,6.8212 32.556,18.2934 13.953,11.4722 23.565,25.7349 h 3.1 q -1.86,-9.9219 -4.651,-29.1455 -2.48,-19.5337 -2.48,-39.9976 v -111.001 h 94.878 V 9481 h -72.554 l -18.293,-44.9585 h -4.031 q -8.992,14.2627 -22.634,26.0449 -13.333,11.4722 -31.936,18.2935 -18.604,6.8213 -43.719,6.8213 z m 33.177,-75.3443 q 38.757,0 54.57,-22.9443 16.123,-23.2544 17.053,-69.7632 v -10.2319 q 0,-50.5396 -15.503,-77.2046 -15.503,-26.9751 -57.671,-26.9751 -31.316,0 -48.989,26.9751 -17.673,26.9751 -17.673,77.8247 0,50.8496 17.673,76.5845 17.983,25.7348 50.54,25.7348 z"
           style="white-space:pre;fill:#ffffff"
           id="path2258" /><path
           d="m 7906.4551,10242.061 q 0,35.346 -16.7432,59.841 -16.4331,24.184 -49.2993,36.897 -32.8662,12.402 -81.8555,12.402 -36.2768,0 -62.3217,-4.651 -25.7349,-4.651 -52.0899,-15.503 v -78.134 q 28.2153,12.712 60.4614,21.084 32.5562,8.061 57.0508,8.061 27.5952,0 39.3775,-8.061 12.0922,-8.372 12.0922,-21.705 0,-8.681 -4.9609,-15.502 -4.6509,-7.132 -20.4639,-15.813 -15.813,-8.992 -49.6093,-23.255 -32.5562,-13.642 -53.6402,-27.595 -20.7739,-13.953 -31.0058,-32.866 -9.9219,-19.224 -9.9219,-48.679 0,-48.06 37.207,-72.244 37.5171,-24.4947 100.1489,-24.4947 32.2461,0 61.3916,6.5112 29.4556,6.5115 60.4615,20.7735 l -28.5254,68.213 q -25.7349,-11.162 -48.6792,-18.293 -22.6343,-7.131 -46.1987,-7.131 -20.774,0 -31.316,5.581 -10.542,5.581 -10.542,17.053 0,8.371 5.271,14.883 5.5811,6.511 21.084,14.572 15.813,7.752 46.1988,20.154 29.4555,12.092 51.1596,25.425 21.7041,13.022 33.4864,32.556 11.7822,19.224 11.7822,49.92 z"
           style="white-space:pre;fill:#ffffff"
           id="path2260" /><path
           d="m 8123.186,9991.8433 q 48.0591,0 82.7857,18.6037 34.7265,18.293 53.6401,53.33 18.9136,35.036 18.9136,85.576 v 45.889 h -223.5523 q 1.5503,39.997 23.8746,62.942 22.6342,22.634 62.6318,22.634 33.1763,0 60.7715,-6.821 27.5952,-6.822 56.7407,-20.464 v 73.174 q -25.7349,12.712 -53.9502,18.603 -27.9053,5.891 -67.9028,5.891 -52.0899,0 -92.3975,-19.223 -39.9975,-19.224 -62.9419,-58.602 -22.6343,-39.377 -22.6343,-99.218 0,-60.772 20.4639,-101.079 20.7739,-40.618 57.6709,-60.772 36.897,-20.4637 85.8862,-20.4637 z m 0.6202,67.2827 q -27.5953,0 -45.8887,17.673 -17.9834,17.674 -20.7739,55.501 h 132.705 q -0.31,-21.084 -7.7514,-37.517 -7.1314,-16.433 -21.7041,-26.045 -14.2627,-9.612 -36.5869,-9.612 z"
           style="white-space:pre;fill:#ffffff"
           id="path2262" /><path
           d="m 8548.8965,9991.8433 q 7.1313,0 16.4331,0.9301 9.6118,0.6202 15.5029,1.8604 l -7.1313,88.6772 q -4.6509,-1.551 -13.3325,-2.171 -8.3716,-0.93 -14.5728,-0.93 -18.2935,0 -35.6567,4.651 -17.0533,4.651 -30.6958,15.193 -13.6426,10.232 -21.7041,27.285 -7.7515,16.743 -7.7515,41.238 V 10345 h -94.5679 v -346.6455 h 71.6236 l 13.9526,58.2915 h 4.6509 q 10.2319,-17.674 25.4248,-32.247 15.5029,-14.882 35.0366,-23.564 19.8437,-8.9917 42.7881,-8.9917 z"
           style="white-space:pre;fill:#ffffff"
           id="path2264" /><path
           d="m 8726.25,10345 -132.085,-346.6455 h 98.9087 l 66.9727,197.5075 q 5.581,17.363 8.6816,36.587 3.4107,19.223 4.6509,34.416 h 2.4805 q 0.9302,-16.433 4.3408,-35.036 3.7207,-18.604 9.6118,-35.967 l 66.6626,-197.5075 h 98.9087 L 8823.2983,10345 Z"
           style="white-space:pre;fill:#ffffff"
           id="path2266" /><path
           d="M 9099.5605,9998.3545 V 10345 h -94.5678 v -346.6455 z m -47.1289,-135.8057 q 21.084,0 36.2769,9.9219 15.1929,9.6118 15.1929,36.2769 0,26.3549 -15.1929,36.5869 -15.1929,9.9218 -36.2769,9.9218 -21.394,0 -36.5869,-9.9218 -14.8828,-10.232 -14.8828,-36.5869 0,-26.6651 14.8828,-36.2769 15.1929,-9.9219 36.5869,-9.9219 z"
           style="white-space:pre;fill:#ffffff"
           id="path2268" /><path
           d="m 9339.5459,10351.201 q -51.4697,0 -87.7466,-18.603 -36.2768,-18.914 -55.1904,-58.291 -18.9136,-39.378 -18.9136,-100.769 0,-63.562 21.3941,-103.56 21.7041,-40.308 59.8413,-59.221 38.4472,-18.9137 88.9868,-18.9137 35.9668,0 62.0117,7.1313 26.355,6.8214 45.8887,16.4334 l -27.9053,73.174 q -22.3242,-8.992 -41.5479,-14.573 -19.2236,-5.891 -38.4472,-5.891 -24.8047,0 -41.2378,11.782 -16.4331,11.472 -24.4946,34.726 -8.0616,23.255 -8.0616,58.291 0,34.417 8.6817,57.051 8.6816,22.635 25.1147,33.797 16.4331,10.852 39.9976,10.852 29.4555,0 52.3999,-7.752 22.9443,-8.061 44.6484,-22.324 v 80.925 q -21.7041,13.643 -45.5786,19.534 -23.5644,6.201 -59.8413,6.201 z"
           style="white-space:pre;fill:#ffffff"
           id="path2270" /><path
           d="m 9668.208,9991.8433 q 48.0591,0 82.7857,18.6037 34.7265,18.293 53.6401,53.33 18.9136,35.036 18.9136,85.576 v 45.889 h -223.5523 q 1.5503,39.997 23.8745,62.942 22.6343,22.634 62.6319,22.634 33.1762,0 60.7714,-6.821 27.5953,-6.822 56.7408,-20.464 v 73.174 q -25.7349,12.712 -53.9502,18.603 -27.9053,5.891 -67.9029,5.891 -52.0898,0 -92.3974,-19.223 -39.9976,-19.224 -62.9419,-58.602 -22.6343,-39.377 -22.6343,-99.218 0,-60.772 20.4639,-101.079 20.7739,-40.618 57.6709,-60.772 36.897,-20.4637 85.8862,-20.4637 z m 0.6201,67.2827 q -27.5952,0 -45.8886,17.673 -17.9834,17.674 -20.774,55.501 h 132.7051 q -0.3101,-21.084 -7.7515,-37.517 -7.1313,-16.433 -21.7041,-26.045 -14.2627,-9.612 -36.5869,-9.612 z"
           style="white-space:pre;fill:#ffffff"
           id="path2272" /><path
           d="m 7573.4658,10855.843 q 58.6011,0 94.5679,45.579 36.2768,45.578 36.2768,133.635 0,58.911 -17.0532,99.219 -17.0532,39.997 -47.1289,60.461 -30.0757,20.464 -69.143,20.464 -25.1148,0 -43.0982,-6.201 -17.9834,-6.511 -30.6958,-16.433 -12.7124,-10.232 -22.0142,-21.704 h -4.9609 q 2.4805,12.402 3.7207,25.425 1.2402,13.022 1.2402,25.424 v 139.837 h -94.5678 v -499.195 h 76.8945 l 13.3325,44.959 h 4.3408 q 9.3018,-13.953 22.6343,-25.735 13.3325,-11.782 31.9361,-18.603 18.9135,-7.132 43.7182,-7.132 z m -30.3857,75.655 q -24.8047,0 -39.3775,10.231 -14.5727,10.232 -21.394,30.696 -6.5112,20.464 -7.1314,51.78 v 10.232 q 0,33.486 6.2012,56.741 6.5112,23.254 21.3941,35.346 15.1928,12.093 41.5478,12.093 21.7041,0 35.6568,-12.093 13.9526,-12.092 20.7739,-35.346 7.1313,-23.565 7.1313,-57.361 0,-50.85 -15.813,-76.585 -15.813,-25.734 -48.9892,-25.734 z"
           style="white-space:pre;fill:#ffffff"
           id="path2274" /><path
           d="m 7877.0132,11209 h -94.5679 v -482.451 h 94.5679 z"
           style="white-space:pre;fill:#ffffff"
           id="path2276" /><path
           d="m 8118.2388,10855.223 q 69.7632,0 106.9702,30.386 37.207,30.386 37.207,92.397 V 11209 h -66.0425 l -18.2934,-47.129 h -2.4805 q -14.8828,18.604 -30.3857,30.386 -15.503,11.782 -35.6568,17.363 -20.1538,5.581 -48.9892,5.581 -30.6958,0 -55.1905,-11.782 -24.1845,-11.782 -38.1372,-35.967 -13.9526,-24.494 -13.9526,-62.012 0,-55.19 38.7573,-81.235 38.7573,-26.355 116.272,-29.145 l 60.1514,-1.861 v -15.193 q 0,-27.285 -14.2627,-39.997 -14.2627,-12.713 -39.6875,-12.713 -25.1148,0 -49.2994,7.132 -24.1845,7.131 -48.3691,17.983 l -31.3159,-63.872 q 27.5952,-14.573 61.7017,-22.944 34.4165,-8.372 71.0034,-8.372 z m 50.2295,193.167 -36.587,1.24 q -45.8886,1.24 -63.872,16.433 -17.6734,15.193 -17.6734,39.998 0,21.704 12.7124,31.005 12.7124,8.992 33.1763,8.992 30.3858,0 51.1597,-17.983 21.084,-17.984 21.084,-51.16 z"
           style="white-space:pre;fill:#ffffff"
           id="path2278" /><path
           d="m 8505.812,11139.857 q 15.5029,0 30.0757,-3.101 14.8828,-3.1 29.4556,-7.751 v 70.383 q -15.1929,6.821 -37.8272,11.162 -22.3242,4.651 -48.9892,4.651 -31.0059,0 -55.8106,-9.922 -24.4946,-10.232 -38.7573,-35.036 -13.9527,-25.115 -13.9527,-69.764 v -167.121 h -45.2685 v -39.998 l 52.0898,-31.626 27.2852,-73.173 h 60.4614 v 73.793 h 97.0484 v 71.004 h -97.0484 v 167.121 q 0,19.844 11.1621,29.766 11.4722,9.612 30.0757,9.612 z"
           style="white-space:pre;fill:#ffffff"
           id="path2280" /><path
           d="m 8827.0327,10933.358 h -81.8555 V 11209 h -94.5678 v -275.642 h -52.0899 v -45.579 l 52.0899,-25.425 v -25.424 q 0,-44.339 14.8828,-68.833 15.1929,-24.805 42.478,-34.727 27.5952,-10.232 65.1123,-10.232 27.5952,0 50.2295,4.651 22.6343,4.341 36.897,9.922 l -24.1846,69.453 q -10.852,-3.411 -23.5644,-6.201 -12.7124,-2.791 -29.1455,-2.791 -19.8438,0 -29.1456,12.093 -8.9917,11.782 -8.9917,30.385 v 21.704 h 81.8555 z"
           style="white-space:pre;fill:#ffffff"
           id="path2282" /><path
           d="m 9196.3125,11035.057 q 0,43.408 -11.7822,76.895 -11.4722,33.486 -33.7964,56.74 -22.0142,22.945 -53.3301,34.727 -31.0059,11.782 -70.0732,11.782 -36.5869,0 -67.2827,-11.782 -30.3858,-11.782 -53.0201,-34.727 -22.3242,-23.254 -34.7265,-56.74 -12.0923,-33.487 -12.0923,-76.895 0,-57.671 20.4639,-97.668 20.4638,-39.998 58.291,-60.772 37.8271,-20.774 90.227,-20.774 48.6792,0 86.1963,20.774 37.8272,20.774 59.2212,60.772 21.7041,39.997 21.7041,97.668 z m -239.6753,0 q 0,34.107 7.4414,57.361 7.4414,23.254 23.2544,35.037 15.813,11.782 41.2378,11.782 25.1147,0 40.6177,-11.782 15.813,-11.783 22.9443,-35.037 7.4414,-23.254 7.4414,-57.361 0,-34.416 -7.4414,-57.051 -7.1313,-22.944 -22.9443,-34.416 -15.813,-11.472 -41.2378,-11.472 -37.5171,0 -54.5703,25.735 -16.7432,25.734 -16.7432,77.204 z"
           style="white-space:pre;fill:#ffffff"
           id="path2284" /><path
           d="m 9467.9238,10855.843 q 7.1314,0 16.4331,0.93 9.6119,0.621 15.503,1.861 l -7.1314,88.677 q -4.6509,-1.551 -13.3325,-2.171 -8.3716,-0.93 -14.5728,-0.93 -18.2934,0 -35.6567,4.651 -17.0532,4.651 -30.6958,15.193 -13.6426,10.232 -21.7041,27.285 -7.7515,16.743 -7.7515,41.238 V 11209 h -94.5678 v -346.646 h 71.6235 l 13.9526,58.292 h 4.6509 q 10.232,-17.674 25.4248,-32.247 15.503,-14.882 35.0366,-23.564 19.8438,-8.992 42.7881,-8.992 z"
           style="white-space:pre;fill:#ffffff"
           id="path2286" /><path
           d="m 9969.9087,10855.843 q 58.9113,0 88.9873,30.386 30.385,30.076 30.385,96.738 V 11209 h -94.8777 v -202.468 q 0,-37.207 -12.7124,-56.121 -12.7124,-18.913 -39.3774,-18.913 -37.5171,0 -53.3301,26.975 -15.813,26.665 -15.813,76.584 V 11209 h -94.5679 v -202.468 q 0,-24.805 -5.581,-41.548 -5.5811,-16.743 -17.0532,-25.115 -11.4722,-8.371 -29.4556,-8.371 -26.355,0 -41.5479,13.332 -14.8828,13.023 -21.394,38.757 -6.2012,25.425 -6.2012,62.322 V 11209 h -94.5678 v -346.646 h 72.2436 l 12.7124,44.339 h 5.271 q 10.542,-17.984 26.355,-29.146 16.123,-11.162 35.3467,-16.433 19.2236,-5.271 39.0674,-5.271 38.1372,0 64.4921,12.403 26.6651,12.402 40.9278,38.447 h 8.3716 q 15.5029,-26.665 43.7182,-38.757 28.5254,-12.093 58.6011,-12.093 z"
           style="white-space:pre;fill:#ffffff"
           id="path2288" /></g></g><g
       class="TextShape"
       id="g1876"><path
         class="BoundingBox"
         fill="none"
         d="M17445 6875h5261v1408h-5261z"
         id="path1864" /><path
         fill="#F90"
         d="M20075 8282h-2630V6875h5260v1407h-2630Z"
         id="path1866" /><g
         aria-label="application"
         id="text1874"
         class="SVGTextShape"><path
           d="m 17951.589,7435.1118 q 93.054,0 142.683,40.5303 49.629,40.5303 49.629,123.2451 V 7907 h -88.091 l -24.401,-62.8633 h -3.309 q -19.851,24.8145 -40.53,40.5303 -20.679,15.7158 -47.561,23.1601 -26.883,7.4444 -65.345,7.4444 -40.944,0 -73.616,-15.7158 -32.259,-15.7159 -50.87,-47.9746 -18.611,-32.6724 -18.611,-82.7149 0,-73.6162 51.697,-108.3564 51.697,-35.1538 155.09,-38.876 l 80.234,-2.4815 v -20.2651 q 0,-36.3945 -19.025,-53.3511 -19.024,-16.9565 -52.937,-16.9565 -33.5,0 -65.758,9.5122 -32.259,9.5122 -64.518,23.9873 l -41.771,-85.1963 q 36.808,-19.438 82.301,-30.6045 45.907,-11.1665 94.709,-11.1665 z m 66.999,257.6568 -48.802,1.6543 q -61.209,1.6542 -85.196,21.9194 -23.574,20.2651 -23.574,53.3511 0,28.9502 16.957,41.3574 16.956,11.9936 44.252,11.9936 40.53,0 68.24,-23.9873 28.123,-23.9873 28.123,-68.2397 z"
           style="white-space:pre;fill:#ffffff"
           id="path2047" /><path
           d="m 18531.006,7435.939 q 78.166,0 126.14,60.7954 48.389,60.7954 48.389,178.2505 0,78.5791 -22.747,132.3437 -22.746,53.3511 -62.863,80.647 -40.117,27.2959 -92.227,27.2959 -33.5,0 -57.487,-8.2715 -23.987,-8.6851 -40.944,-21.9194 -16.956,-13.648 -29.364,-28.9502 h -6.617 q 3.309,16.5429 4.963,33.9131 1.654,17.3701 1.654,33.913 v 186.522 h -126.14 V 7444.624 h 102.567 l 17.783,59.9683 h 5.79 q 12.408,-18.6109 30.191,-34.3267 17.784,-15.7158 42.598,-24.8144 25.228,-9.5122 58.314,-9.5122 z m -40.53,100.9121 q -33.086,0 -52.524,13.6479 -19.438,13.648 -28.536,40.9439 -8.686,27.2959 -9.513,69.0669 v 13.6479 q 0,44.666 8.272,75.6841 8.685,31.0181 28.536,47.1475 20.266,16.1294 55.419,16.1294 28.951,0 47.561,-16.1294 18.611,-16.1294 27.71,-47.1475 9.512,-31.4316 9.512,-76.5112 0,-67.8262 -21.092,-102.1529 -21.092,-34.3266 -65.345,-34.3266 z"
           style="white-space:pre;fill:#ffffff"
           id="path2049" /><path
           d="m 19066.999,7435.939 q 78.165,0 126.14,60.7954 48.388,60.7954 48.388,178.2505 0,78.5791 -22.747,132.3437 -22.746,53.3511 -62.863,80.647 -40.117,27.2959 -92.227,27.2959 -33.5,0 -57.487,-8.2715 -23.987,-8.6851 -40.944,-21.9194 -16.956,-13.648 -29.363,-28.9502 h -6.618 q 3.309,16.5429 4.963,33.9131 1.655,17.3701 1.655,33.913 v 186.522 h -126.141 V 7444.624 h 102.567 l 17.783,59.9683 h 5.791 q 12.407,-18.6109 30.19,-34.3267 17.784,-15.7158 42.599,-24.8144 25.228,-9.5122 58.314,-9.5122 z m -40.531,100.9121 q -33.086,0 -52.524,13.6479 -19.438,13.648 -28.536,40.9439 -8.685,27.2959 -9.512,69.0669 v 13.6479 q 0,44.666 8.271,75.6841 8.685,31.0181 28.537,47.1475 20.265,16.1294 55.419,16.1294 28.95,0 47.561,-16.1294 18.61,-16.1294 27.709,-47.1475 9.512,-31.4316 9.512,-76.5112 0,-67.8262 -21.092,-102.1529 -21.092,-34.3266 -65.345,-34.3266 z"
           style="white-space:pre;fill:#ffffff"
           id="path2051" /><path
           d="m 19471.888,7907 h -126.14 v -643.5215 h 126.14 z"
           style="white-space:pre;fill:#ffffff"
           id="path2053" /><path
           d="M 19730.372,7444.624 V 7907 h -126.141 v -462.376 z m -62.864,-181.1455 q 28.123,0 48.388,13.2344 20.266,12.8208 20.266,48.3882 0,35.1538 -20.266,48.8017 -20.265,13.2344 -48.388,13.2344 -28.536,0 -48.801,-13.2344 -19.852,-13.6479 -19.852,-48.8017 0,-35.5674 19.852,-48.3882 20.265,-13.2344 48.801,-13.2344 z"
           style="white-space:pre;fill:#ffffff"
           id="path2055" /><path
           d="m 20050.478,7915.2715 q -68.653,0 -117.041,-24.8145 -48.389,-25.228 -73.617,-77.7519 -25.228,-52.5239 -25.228,-134.4116 0,-84.7828 28.537,-138.1338 28.95,-53.7647 79.82,-78.9927 51.283,-25.228 118.696,-25.228 47.974,0 82.714,9.5122 35.154,9.0986 61.209,21.9194 l -37.221,97.6035 q -29.778,-11.9936 -55.419,-19.438 -25.642,-7.8579 -51.283,-7.8579 -33.086,0 -55.006,15.7158 -21.919,15.3023 -32.672,46.3204 -10.753,31.018 -10.753,77.7519 0,45.9067 11.58,76.0977 11.58,30.1909 33.499,45.0796 21.92,14.4751 53.352,14.4751 39.289,0 69.894,-10.3394 30.604,-10.7529 59.554,-29.7773 v 107.9428 q -28.95,18.1973 -60.795,26.0552 -31.432,8.2715 -79.82,8.2715 z"
           style="white-space:pre;fill:#ffffff"
           id="path2057" /><path
           d="m 20487.626,7435.1118 q 93.054,0 142.683,40.5303 49.629,40.5303 49.629,123.2451 V 7907 h -88.091 l -24.401,-62.8633 h -3.309 q -19.851,24.8145 -40.53,40.5303 -20.679,15.7158 -47.561,23.1601 -26.882,7.4444 -65.345,7.4444 -40.944,0 -73.616,-15.7158 -32.259,-15.7159 -50.87,-47.9746 -18.611,-32.6724 -18.611,-82.7149 0,-73.6162 51.697,-108.3564 51.697,-35.1538 155.091,-38.876 l 80.233,-2.4815 v -20.2651 q 0,-36.3945 -19.024,-53.3511 -19.025,-16.9565 -52.938,-16.9565 -33.499,0 -65.758,9.5122 -32.259,9.5122 -64.518,23.9873 l -41.771,-85.1963 q 36.808,-19.438 82.301,-30.6045 45.907,-11.1665 94.709,-11.1665 z m 66.999,257.6568 -48.802,1.6543 q -61.209,1.6542 -85.196,21.9194 -23.574,20.2651 -23.574,53.3511 0,28.9502 16.957,41.3574 16.956,11.9936 44.252,11.9936 40.53,0 68.24,-23.9873 28.123,-23.9873 28.123,-68.2397 z"
           style="white-space:pre;fill:#ffffff"
           id="path2059" /><path
           d="m 21004.594,7814.7729 q 20.678,0 40.116,-4.1357 19.852,-4.1357 39.29,-10.3393 v 93.8813 q -20.265,9.0986 -50.456,14.8887 -29.777,6.2036 -65.345,6.2036 -41.357,0 -74.443,-13.2344 -32.673,-13.6479 -51.697,-46.7339 -18.611,-33.4995 -18.611,-93.0542 v -222.9165 h -60.382 v -53.3511 l 69.481,-42.1845 36.394,-97.6035 h 80.647 v 98.4306 h 129.449 v 94.7085 h -129.449 v 222.9165 q 0,26.4688 14.889,39.7031 15.302,12.8208 40.117,12.8208 z"
           style="white-space:pre;fill:#ffffff"
           id="path2061" /><path
           d="M 21303.608,7444.624 V 7907 h -126.14 v -462.376 z m -62.863,-181.1455 q 28.123,0 48.388,13.2344 20.265,12.8208 20.265,48.3882 0,35.1538 -20.265,48.8017 -20.265,13.2344 -48.388,13.2344 -28.537,0 -48.802,-13.2344 -19.852,-13.6479 -19.852,-48.8017 0,-35.5674 19.852,-48.3882 20.265,-13.2344 48.802,-13.2344 z"
           style="white-space:pre;fill:#ffffff"
           id="path2063" /><path
           d="m 21856.143,7674.9849 q 0,57.9004 -15.716,102.5664 -15.302,44.666 -45.079,75.6841 -29.364,30.6044 -71.135,46.3203 -41.358,15.7158 -93.468,15.7158 -48.802,0 -89.745,-15.7158 -40.531,-15.7159 -70.722,-46.3203 -29.777,-31.0181 -46.32,-75.6841 -16.129,-44.666 -16.129,-102.5664 0,-76.9248 27.296,-130.2759 27.295,-53.3511 77.751,-81.0606 50.457,-27.7094 120.351,-27.7094 64.931,0 114.973,27.7094 50.456,27.7095 78.993,81.0606 28.95,53.3511 28.95,130.2759 z m -319.693,0 q 0,45.4931 9.926,76.5112 9.926,31.0181 31.018,46.7339 21.092,15.7158 55.005,15.7158 33.5,0 54.179,-15.7158 21.092,-15.7158 30.604,-46.7339 9.926,-31.0181 9.926,-76.5112 0,-45.9068 -9.926,-76.0977 -9.512,-30.6045 -30.604,-45.9067 -21.093,-15.3023 -55.006,-15.3023 -50.042,0 -72.789,34.3267 -22.333,34.3266 -22.333,102.98 z"
           style="white-space:pre;fill:#ffffff"
           id="path2065" /><path
           d="m 22222.983,7435.939 q 74.03,0 119.11,40.5302 45.079,40.1167 45.079,129.0352 V 7907 h -126.14 v -270.064 q 0,-49.6289 -18.197,-74.8569 -17.784,-25.228 -56.246,-25.228 -57.901,0 -78.993,39.2895 -21.092,39.2896 -21.092,113.3194 V 7907 h -126.14 v -462.376 h 96.363 l 16.956,59.1411 h 7.031 q 14.889,-23.9873 36.808,-38.8759 22.333,-14.8887 49.215,-21.9195 27.296,-7.0307 56.246,-7.0307 z"
           style="white-space:pre;fill:#ffffff"
           id="path2067" /></g></g><g
       class="com.sun.star.drawing.CustomShape"
       id="g1884"><path
         class="BoundingBox"
         fill="none"
         d="M16450 11567h7248v2266h-7248z"
         id="path1878" /><path
         fill="#069"
         d="M20074 13779h-3571v-2159h7141v2159h-3570Z"
         id="path1880" /><path
         fill="none"
         stroke="#3465A4"
         stroke-width="106"
         d="M20074 13779h-3571v-2159h7141v2159h-3570Z"
         id="path1882" /></g><g
       class="TextShape"
       id="g1896"><path
         class="BoundingBox"
         fill="none"
         d="M17561 12075h5020v1408h-5020z"
         id="path1886" /><g
         aria-label="access"
         id="text1894"
         class="SVGTextShape"><path
           d="m 18964.589,12635.112 q 93.054,0 142.683,40.53 49.629,40.53 49.629,123.245 V 13107 h -88.091 l -24.401,-62.863 h -3.309 q -19.851,24.814 -40.53,40.53 -20.679,15.716 -47.561,23.16 -26.883,7.444 -65.345,7.444 -40.944,0 -73.616,-15.715 -32.259,-15.716 -50.87,-47.975 -18.611,-32.672 -18.611,-82.715 0,-73.616 51.697,-108.356 51.697,-35.154 155.09,-38.876 l 80.234,-2.482 v -20.265 q 0,-36.394 -19.025,-53.351 -19.024,-16.956 -52.937,-16.956 -33.5,0 -65.758,9.512 -32.259,9.512 -64.518,23.987 l -41.771,-85.196 q 36.808,-19.438 82.301,-30.605 45.907,-11.166 94.709,-11.166 z m 66.999,257.657 -48.802,1.654 q -61.209,1.654 -85.196,21.919 -23.574,20.265 -23.574,53.351 0,28.951 16.957,41.358 16.956,11.993 44.252,11.993 40.53,0 68.24,-23.987 28.123,-23.987 28.123,-68.24 z"
           style="white-space:pre;fill:#ffffff"
           id="path2087" /><path
           d="m 19474.526,13115.271 q -68.653,0 -117.042,-24.814 -48.388,-25.228 -73.616,-77.752 -25.228,-52.524 -25.228,-134.412 0,-84.782 28.537,-138.133 28.95,-53.765 79.82,-78.993 51.283,-25.228 118.695,-25.228 47.975,0 82.715,9.512 35.154,9.099 61.209,21.92 l -37.221,97.603 q -29.778,-11.994 -55.419,-19.438 -25.642,-7.858 -51.284,-7.858 -33.086,0 -55.005,15.716 -21.919,15.302 -32.672,46.32 -10.753,31.018 -10.753,77.752 0,45.907 11.58,76.098 11.58,30.191 33.499,45.08 21.92,14.475 53.351,14.475 39.29,0 69.894,-10.34 30.605,-10.753 59.555,-29.777 v 107.943 q -28.95,18.197 -60.795,26.055 -31.432,8.271 -79.82,8.271 z"
           style="white-space:pre;fill:#ffffff"
           id="path2089" /><path
           d="m 19910.02,13115.271 q -68.654,0 -117.042,-24.814 -48.388,-25.228 -73.616,-77.752 -25.228,-52.524 -25.228,-134.412 0,-84.782 28.536,-138.133 28.951,-53.765 79.82,-78.993 51.283,-25.228 118.696,-25.228 47.975,0 82.715,9.512 35.154,9.099 61.209,21.92 l -37.222,97.603 q -29.777,-11.994 -55.419,-19.438 -25.641,-7.858 -51.283,-7.858 -33.086,0 -55.005,15.716 -21.92,15.302 -32.673,46.32 -10.753,31.018 -10.753,77.752 0,45.907 11.58,76.098 11.581,30.191 33.5,45.08 21.919,14.475 53.351,14.475 39.29,0 69.894,-10.34 30.605,-10.753 59.555,-29.777 v 107.943 q -28.95,18.197 -60.796,26.055 -31.431,8.271 -79.819,8.271 z"
           style="white-space:pre;fill:#ffffff"
           id="path2091" /><path
           d="m 20348.408,12635.939 q 64.104,0 110.425,24.814 46.32,24.401 71.548,71.135 25.228,46.734 25.228,114.147 v 61.209 h -298.187 q 2.068,53.351 31.845,83.955 30.191,30.191 83.542,30.191 44.253,0 81.061,-9.098 36.808,-9.099 75.684,-27.296 v 97.603 q -34.327,16.957 -71.962,24.815 -37.222,7.857 -90.573,7.857 -69.48,0 -123.245,-25.641 -53.351,-25.642 -83.956,-78.166 -30.191,-52.524 -30.191,-132.343 0,-81.061 27.296,-134.826 27.71,-54.178 76.925,-81.06 49.215,-27.296 114.56,-27.296 z m 0.827,89.746 q -36.808,0 -61.209,23.573 -23.987,23.574 -27.709,74.03 h 177.01 q -0.414,-28.123 -10.34,-50.042 -9.512,-21.92 -28.95,-34.741 -19.024,-12.82 -48.802,-12.82 z"
           style="white-space:pre;fill:#ffffff"
           id="path2093" /><path
           d="m 20980.763,12969.693 q 0,47.148 -22.333,79.82 -21.919,32.259 -65.758,49.216 -43.839,16.542 -109.184,16.542 -48.388,0 -83.128,-6.203 -34.327,-6.204 -69.481,-20.679 v -104.221 q 37.636,16.957 80.647,28.124 43.426,10.752 76.098,10.752 36.808,0 52.524,-10.752 16.129,-11.167 16.129,-28.951 0,-11.58 -6.617,-20.678 -6.203,-9.513 -27.296,-21.093 -21.092,-11.993 -66.172,-31.018 -43.425,-18.197 -71.548,-36.808 -27.709,-18.611 -41.357,-43.839 -13.235,-25.641 -13.235,-64.931 0,-64.104 49.629,-96.363 50.043,-32.672 133.585,-32.672 43.011,0 81.887,8.685 39.29,8.685 80.647,27.709 l -38.049,90.987 q -34.326,-14.889 -64.931,-24.401 -30.191,-9.512 -61.622,-9.512 -27.71,0 -41.771,7.444 -14.062,7.444 -14.062,22.747 0,11.166 7.031,19.851 7.444,8.685 28.123,19.438 21.092,10.34 61.623,26.883 39.289,16.129 68.239,33.913 28.951,17.37 44.666,43.425 15.716,25.642 15.716,66.585 z"
           style="white-space:pre;fill:#ffffff"
           id="path2095" /><path
           d="m 21401.782,12969.693 q 0,47.148 -22.333,79.82 -21.92,32.259 -65.759,49.216 -43.838,16.542 -109.183,16.542 -48.388,0 -83.129,-6.203 -34.326,-6.204 -69.48,-20.679 v -104.221 q 37.635,16.957 80.647,28.124 43.425,10.752 76.098,10.752 36.808,0 52.524,-10.752 16.129,-11.167 16.129,-28.951 0,-11.58 -6.617,-20.678 -6.204,-9.513 -27.296,-21.093 -21.092,-11.993 -66.172,-31.018 -43.425,-18.197 -71.548,-36.808 -27.71,-18.611 -41.358,-43.839 -13.234,-25.641 -13.234,-64.931 0,-64.104 49.629,-96.363 50.042,-32.672 133.584,-32.672 43.012,0 81.888,8.685 39.289,8.685 80.647,27.709 l -38.049,90.987 q -34.327,-14.889 -64.931,-24.401 -30.191,-9.512 -61.623,-9.512 -27.709,0 -41.771,7.444 -14.061,7.444 -14.061,22.747 0,11.166 7.031,19.851 7.444,8.685 28.123,19.438 21.092,10.34 61.622,26.883 39.29,16.129 68.24,33.913 28.95,17.37 44.666,43.425 15.716,25.642 15.716,66.585 z"
           style="white-space:pre;fill:#ffffff"
           id="path2097" /></g></g><g
       class="com.sun.star.drawing.LineShape"
       id="g1902"><path
         class="BoundingBox"
         fill="none"
         d="M8150 13805h8639v3H8150z"
         id="path1898" /><path
         fill="none"
         stroke="#666"
         d="M8151 13806h8636"
         id="path1900" /></g><g
       class="com.sun.star.drawing.CustomShape"
       id="g1910"><path
         class="BoundingBox"
         fill="none"
         d="M16470 8945h7209v2266h-7209z"
         id="path1904" /><path
         fill="#060"
         d="M20074 11157h-3551V8998h7102v2159h-3551Z"
         id="path1906" /><path
         fill="none"
         stroke="#060"
         stroke-width="106"
         d="M20074 11157h-3551V8998h7102v2159h-3551Z"
         id="path1908" /></g><g
       class="TextShape"
       id="g1924"><path
         class="BoundingBox"
         fill="none"
         d="M17982 9453h4186v1408h-4186z"
         id="path1912" /><path
         fill="#060"
         d="M20075 10860h-2093V9453h4185v1407h-2092Z"
         id="path1914" /><g
         aria-label="services"
         id="text1922"
         class="SVGTextShape"><path
           d="m 18763.76,10347.693 q 0,47.148 -22.333,79.82 -21.92,32.259 -65.759,49.216 -43.838,16.542 -109.183,16.542 -48.388,0 -83.129,-6.203 -34.326,-6.204 -69.48,-20.679 v -104.221 q 37.635,16.957 80.647,28.124 43.425,10.752 76.098,10.752 36.808,0 52.524,-10.752 16.129,-11.167 16.129,-28.951 0,-11.58 -6.617,-20.678 -6.204,-9.513 -27.296,-21.093 -21.092,-11.993 -66.172,-31.018 -43.425,-18.197 -71.548,-36.808 -27.71,-18.611 -41.358,-43.839 -13.234,-25.641 -13.234,-64.931 0,-64.104 49.629,-96.363 50.042,-32.672 133.584,-32.672 43.012,0 81.888,8.685 39.289,8.685 80.647,27.709 l -38.049,90.987 q -34.327,-14.889 -64.931,-24.401 -30.191,-9.512 -61.623,-9.512 -27.709,0 -41.771,7.444 -14.061,7.444 -14.061,22.747 0,11.166 7.031,19.851 7.444,8.685 28.123,19.438 21.092,10.34 61.622,26.883 39.29,16.129 68.24,33.913 28.95,17.37 44.666,43.425 15.716,25.642 15.716,66.585 z"
           style="white-space:pre;fill:#ffffff"
           id="path2070" /><path
           d="m 19052.848,10013.939 q 64.104,0 110.424,24.814 46.321,24.401 71.549,71.135 25.228,46.734 25.228,114.147 v 61.209 h -298.187 q 2.068,53.351 31.845,83.955 30.191,30.191 83.542,30.191 44.252,0 81.061,-9.098 36.808,-9.099 75.684,-27.296 v 97.603 q -34.327,16.957 -71.962,24.815 -37.222,7.857 -90.573,7.857 -69.48,0 -123.245,-25.641 -53.351,-25.642 -83.956,-78.166 -30.191,-52.524 -30.191,-132.343 0,-81.061 27.296,-134.826 27.71,-54.178 76.925,-81.06 49.215,-27.296 114.56,-27.296 z m 0.827,89.746 q -36.808,0 -61.209,23.573 -23.987,23.574 -27.709,74.03 h 177.01 q -0.414,-28.123 -10.34,-50.042 -9.512,-21.92 -28.95,-34.741 -19.024,-12.82 -48.802,-12.82 z"
           style="white-space:pre;fill:#ffffff"
           id="path2072" /><path
           d="m 19620.686,10013.939 q 9.512,0 21.919,1.241 12.821,0.827 20.679,2.481 l -9.513,118.282 q -6.203,-2.068 -17.783,-2.895 -11.167,-1.24 -19.438,-1.24 -24.401,0 -47.561,6.203 -22.747,6.204 -40.944,20.265 -18.197,13.648 -28.95,36.395 -10.34,22.333 -10.34,55.005 V 10485 h -126.14 v -462.376 h 95.536 l 18.611,77.752 h 6.203 q 13.648,-23.574 33.913,-43.012 20.679,-19.851 46.734,-31.431 26.469,-11.994 57.074,-11.994 z"
           style="white-space:pre;fill:#ffffff"
           id="path2074" /><path
           d="m 19857.25,10485 -176.183,-462.376 h 131.931 l 89.332,263.447 q 7.444,23.16 11.58,48.802 4.549,25.641 6.203,45.906 h 3.309 q 1.241,-21.919 5.79,-46.734 4.963,-24.814 12.821,-47.974 l 88.918,-263.447 h 131.93 L 19986.699,10485 Z"
           style="white-space:pre;fill:#ffffff"
           id="path2076" /><path
           d="M 20355.193,10022.624 V 10485 h -126.14 v -462.376 z m -62.863,-181.1455 q 28.123,0 48.388,13.2344 20.265,12.8208 20.265,48.3882 0,35.1538 -20.265,48.8017 -20.265,13.2344 -48.388,13.2344 -28.537,0 -48.802,-13.2344 -19.851,-13.6479 -19.851,-48.8017 0,-35.5674 19.851,-48.3882 20.265,-13.2344 48.802,-13.2344 z"
           style="white-space:pre;fill:#ffffff"
           id="path2078" /><path
           d="m 20675.3,10493.271 q -68.654,0 -117.042,-24.814 -48.388,-25.228 -73.616,-77.752 -25.228,-52.524 -25.228,-134.412 0,-84.782 28.537,-138.133 28.95,-53.765 79.82,-78.993 51.283,-25.228 118.695,-25.228 47.975,0 82.715,9.512 35.154,9.099 61.209,21.92 l -37.222,97.603 q -29.777,-11.994 -55.418,-19.438 -25.642,-7.858 -51.284,-7.858 -33.086,0 -55.005,15.716 -21.919,15.302 -32.672,46.32 -10.753,31.018 -10.753,77.752 0,45.907 11.58,76.098 11.58,30.191 33.499,45.08 21.92,14.475 53.351,14.475 39.29,0 69.894,-10.34 30.605,-10.753 59.555,-29.777 v 107.943 q -28.95,18.197 -60.795,26.055 -31.432,8.271 -79.82,8.271 z"
           style="white-space:pre;fill:#ffffff"
           id="path2080" /><path
           d="m 21113.688,10013.939 q 64.104,0 110.425,24.814 46.32,24.401 71.548,71.135 25.228,46.734 25.228,114.147 v 61.209 h -298.187 q 2.068,53.351 31.845,83.955 30.191,30.191 83.542,30.191 44.253,0 81.061,-9.098 36.808,-9.099 75.684,-27.296 v 97.603 q -34.327,16.957 -71.962,24.815 -37.222,7.857 -90.573,7.857 -69.48,0 -123.245,-25.641 -53.351,-25.642 -83.955,-78.166 -30.191,-52.524 -30.191,-132.343 0,-81.061 27.296,-134.826 27.709,-54.178 76.924,-81.06 49.216,-27.296 114.56,-27.296 z m 0.828,89.746 q -36.808,0 -61.209,23.573 -23.988,23.574 -27.71,74.03 h 177.01 q -0.414,-28.123 -10.339,-50.042 -9.513,-21.92 -28.951,-34.741 -19.024,-12.82 -48.801,-12.82 z"
           style="white-space:pre;fill:#ffffff"
           id="path2082" /><path
           d="m 21746.043,10347.693 q 0,47.148 -22.333,79.82 -21.919,32.259 -65.758,49.216 -43.839,16.542 -109.183,16.542 -48.389,0 -83.129,-6.203 -34.327,-6.204 -69.48,-20.679 v -104.221 q 37.635,16.957 80.647,28.124 43.425,10.752 76.097,10.752 36.808,0 52.524,-10.752 16.13,-11.167 16.13,-28.951 0,-11.58 -6.618,-20.678 -6.203,-9.513 -27.295,-21.093 -21.093,-11.993 -66.172,-31.018 -43.426,-18.197 -71.549,-36.808 -27.709,-18.611 -41.357,-43.839 -13.234,-25.641 -13.234,-64.931 0,-64.104 49.628,-96.363 50.043,-32.672 133.585,-32.672 43.012,0 81.888,8.685 39.289,8.685 80.647,27.709 l -38.049,90.987 q -34.327,-14.889 -64.931,-24.401 -30.191,-9.512 -61.623,-9.512 -27.709,0 -41.771,7.444 -14.061,7.444 -14.061,22.747 0,11.166 7.03,19.851 7.445,8.685 28.123,19.438 21.093,10.34 61.623,26.883 39.289,16.129 68.24,33.913 28.95,17.37 44.666,43.425 15.715,25.642 15.715,66.585 z"
           style="white-space:pre;fill:#ffffff"
           id="path2084" /></g></g><g
       class="TextShape"
       id="g1936"><path
         class="BoundingBox"
         fill="none"
         d="M11514 12169h4762v1213h-4762z"
         id="path1926" /><g
         aria-label="information"
         id="text1934"
         class="SVGTextShape"><path
           d="M 11925.298,12663.596 V 13049 h -105.142 v -385.404 z m -52.399,-150.991 q 23.442,0 40.333,11.032 16.892,10.686 16.892,40.333 0,29.301 -16.892,40.677 -16.891,11.032 -40.333,11.032 -23.786,0 -40.677,-11.032 -16.547,-11.376 -16.547,-40.677 0,-29.647 16.547,-40.333 16.891,-11.032 40.677,-11.032 z"
           style="white-space:pre;fill:#666666"
           id="path2185" /><path
           d="m 12254.512,12656.356 q 61.706,0 99.281,33.784 37.575,33.438 37.575,107.554 V 13049 h -105.141 v -225.106 q 0,-41.368 -15.168,-62.396 -14.824,-21.028 -46.883,-21.028 -48.262,0 -65.843,32.749 -17.581,32.749 -17.581,94.455 V 13049 h -105.142 v -385.404 h 80.322 l 14.133,49.296 h 5.861 q 12.41,-19.995 30.68,-32.405 18.616,-12.41 41.023,-18.27 22.752,-5.861 46.883,-5.861 z"
           style="white-space:pre;fill:#666666"
           id="path2187" /><path
           d="m 12712.653,12742.538 h -91.007 V 13049 h -105.142 v -306.462 h -57.914 v -50.675 l 57.914,-28.267 v -28.268 q 0,-49.296 16.547,-76.529 16.891,-27.578 47.227,-38.61 30.681,-11.376 72.393,-11.376 30.681,0 55.846,5.171 25.165,4.827 41.022,11.032 l -26.889,77.218 q -12.065,-3.792 -26.199,-6.894 -14.134,-3.103 -32.404,-3.103 -22.063,0 -32.404,13.445 -9.997,13.099 -9.997,33.783 v 24.131 h 91.007 z"
           style="white-space:pre;fill:#666666"
           id="path2189" /><path
           d="m 13123.223,12855.608 q 0,48.262 -13.1,85.493 -12.755,37.23 -37.575,63.085 -24.476,25.509 -59.293,38.609 -34.473,13.1 -77.908,13.1 -40.678,0 -74.806,-13.1 -33.783,-13.1 -58.948,-38.609 -24.821,-25.855 -38.61,-63.085 -13.444,-37.231 -13.444,-85.493 0,-64.119 22.752,-108.588 22.752,-44.47 64.809,-67.567 42.056,-23.097 100.315,-23.097 54.122,0 95.834,23.097 42.057,23.097 65.843,67.567 24.131,44.469 24.131,108.588 z m -266.474,0 q 0,37.92 8.273,63.775 8.274,25.854 25.855,38.954 17.581,13.1 45.849,13.1 27.922,0 45.159,-13.1 17.581,-13.1 25.51,-38.954 8.273,-25.855 8.273,-63.775 0,-38.264 -8.273,-63.429 -7.929,-25.51 -25.51,-38.265 -17.581,-12.755 -45.849,-12.755 -41.712,0 -60.672,28.612 -18.615,28.613 -18.615,85.837 z"
           style="white-space:pre;fill:#666666"
           id="path2191" /><path
           d="m 13425.203,12656.356 q 7.929,0 18.271,1.035 10.686,0.689 17.236,2.068 l -7.929,98.592 q -5.171,-1.724 -14.823,-2.413 -9.308,-1.034 -16.202,-1.034 -20.339,0 -39.644,5.17 -18.96,5.171 -34.128,16.892 -15.168,11.376 -24.13,30.336 -8.619,18.615 -8.619,45.849 V 13049 h -105.141 v -385.404 h 79.632 l 15.512,64.808 h 5.171 q 11.376,-19.649 28.268,-35.851 17.236,-16.547 38.954,-26.199 22.062,-9.998 47.572,-9.998 z"
           style="white-space:pre;fill:#666666"
           id="path2193" /><path
           d="m 13983.315,12656.356 q 65.498,0 98.937,33.784 33.783,33.438 33.783,107.554 V 13049 h -105.486 v -225.106 q 0,-41.368 -14.134,-62.396 -14.134,-21.028 -43.78,-21.028 -41.712,0 -59.293,29.991 -17.581,29.646 -17.581,85.147 V 13049 h -105.142 v -225.106 q 0,-27.579 -6.205,-46.194 -6.205,-18.615 -18.96,-27.923 -12.755,-9.307 -32.749,-9.307 -29.302,0 -46.193,14.823 -16.547,14.478 -23.786,43.091 -6.895,28.267 -6.895,69.29 V 13049 h -105.142 v -385.404 h 80.322 l 14.134,49.296 h 5.86 q 11.721,-19.995 29.302,-32.405 17.925,-12.41 39.298,-18.27 21.374,-5.861 43.436,-5.861 42.401,0 71.703,13.79 29.647,13.789 45.504,42.746 h 9.308 q 17.236,-29.647 48.606,-43.091 31.715,-13.445 65.153,-13.445 z"
           style="white-space:pre;fill:#666666"
           id="path2195" /><path
           d="m 14381.819,12655.667 q 77.564,0 118.931,33.783 41.367,33.783 41.367,102.729 V 13049 h -73.427 l -20.338,-52.398 h -2.758 q -16.547,20.683 -33.783,33.783 -17.237,13.099 -39.644,19.304 -22.407,6.206 -54.467,6.206 -34.128,0 -61.361,-13.1 -26.889,-13.1 -42.401,-39.988 -15.513,-27.234 -15.513,-68.946 0,-61.361 43.091,-90.318 43.09,-29.302 129.272,-32.404 l 66.877,-2.069 v -16.891 q 0,-30.336 -15.857,-44.47 -15.858,-14.134 -44.125,-14.134 -27.923,0 -54.812,7.929 -26.889,7.929 -53.777,19.994 l -34.818,-71.014 q 30.681,-16.202 68.601,-25.509 38.265,-9.308 78.942,-9.308 z m 55.846,214.765 -40.678,1.379 q -51.019,1.378 -71.013,18.27 -19.65,16.892 -19.65,44.47 0,24.131 14.134,34.472 14.134,9.998 36.886,9.998 33.783,0 56.88,-19.995 23.441,-19.994 23.441,-56.88 z"
           style="white-space:pre;fill:#666666"
           id="path2197" /><path
           d="m 14812.728,12972.126 q 17.236,0 33.438,-3.447 16.547,-3.448 32.749,-8.618 v 78.252 q -16.892,7.584 -42.057,12.411 -24.82,5.171 -54.466,5.171 -34.473,0 -62.051,-11.032 -27.234,-11.376 -43.091,-38.954 -15.513,-27.923 -15.513,-77.563 v -185.808 h -50.33 v -44.47 l 57.914,-35.162 30.336,-81.355 h 67.222 v 82.045 h 107.899 v 78.942 h -107.899 v 185.808 q 0,22.062 12.41,33.093 12.755,10.687 33.439,10.687 z"
           style="white-space:pre;fill:#666666"
           id="path2199" /><path
           d="M 15061.965,12663.596 V 13049 h -105.142 v -385.404 z m -52.399,-150.991 q 23.442,0 40.333,11.032 16.892,10.686 16.892,40.333 0,29.301 -16.892,40.677 -16.891,11.032 -40.333,11.032 -23.786,0 -40.677,-11.032 -16.547,-11.376 -16.547,-40.677 0,-29.647 16.547,-40.333 16.891,-11.032 40.677,-11.032 z"
           style="white-space:pre;fill:#666666"
           id="path2201" /><path
           d="m 15522.52,12855.608 q 0,48.262 -13.1,85.493 -12.755,37.23 -37.575,63.085 -24.476,25.509 -59.293,38.609 -34.473,13.1 -77.908,13.1 -40.678,0 -74.806,-13.1 -33.783,-13.1 -58.948,-38.609 -24.821,-25.855 -38.61,-63.085 -13.444,-37.231 -13.444,-85.493 0,-64.119 22.752,-108.588 22.752,-44.47 64.808,-67.567 42.057,-23.097 100.316,-23.097 54.122,0 95.834,23.097 42.057,23.097 65.843,67.567 24.131,44.469 24.131,108.588 z m -266.474,0 q 0,37.92 8.273,63.775 8.274,25.854 25.855,38.954 17.581,13.1 45.848,13.1 27.923,0 45.16,-13.1 17.581,-13.1 25.509,-38.954 8.274,-25.855 8.274,-63.775 0,-38.264 -8.274,-63.429 -7.928,-25.51 -25.509,-38.265 -17.581,-12.755 -45.849,-12.755 -41.712,0 -60.672,28.612 -18.615,28.613 -18.615,85.837 z"
           style="white-space:pre;fill:#666666"
           id="path2203" /><path
           d="m 15828.292,12656.356 q 61.706,0 99.281,33.784 37.575,33.438 37.575,107.554 V 13049 h -105.141 v -225.106 q 0,-41.368 -15.168,-62.396 -14.823,-21.028 -46.883,-21.028 -48.262,0 -65.843,32.749 -17.581,32.749 -17.581,94.455 V 13049 h -105.141 v -385.404 h 80.321 l 14.134,49.296 h 5.86 q 12.41,-19.995 30.681,-32.405 18.615,-12.41 41.022,-18.27 22.752,-5.861 46.883,-5.861 z"
           style="white-space:pre;fill:#666666"
           id="path2205" /></g></g><g
       class="com.sun.star.drawing.CustomShape"
       id="g1942"><path
         class="BoundingBox"
         fill="none"
         d="M6228 3354h17532v2214H6228z"
         id="path1938" /><path
         fill="none"
         stroke="#F90"
         stroke-width="53"
         d="M14994 5540H6255V3381h17477v2159h-8738Z"
         id="path1940" /></g><g
       class="Graphic"
       id="g1948"><path
         class="BoundingBox"
         fill="none"
         d="M6639 3657h1804v1804H6639z"
         id="path1944" /><path
         fill="#F90"
         d="m7079 4325-3 6c-15 26-36 47-61 62-2 1-5 2-7 3l392 394 95-48-416-417Zm518 519-95 48 199 200 3-6c15-26 36-47 61-62 3-1 5-2 7-3l-175-177ZM7828 4593l17 105 251-127c-10-10-19-21-26-34-10-17-17-36-20-56l-222 112Zm-129 66-525 266c10 10 19 21 26 33 10 18 17 37 20 57l496-252-17-104ZM7277 4498l75 75 268-523c-19-4-38-11-55-21-13-7-24-15-34-25l-254 494Zm-66 129-128 250c20 3 39 10 56 20 12 7 24 16 34 26l113-221-75-75ZM7006 4397c-24 12-49 18-75 18h-9c-5 0-11-1-16-2l75 479c23-11 49-17 75-17h8c6 0 11 1 17 2l-75-480ZM7220 5017c2 8 2 17 2 26v8c-1 23-7 45-17 66l479 76c-2-8-2-16-2-25v-8c1-23 7-46 18-66l-480-77ZM8097 4573l-221 431c20 4 39 10 56 20 12 8 24 16 34 26l221-431c-19-4-38-10-55-20-13-8-24-16-35-26ZM7796 3962c-1 2-2 4-4 6-14 26-35 47-61 61-2 2-4 3-7 4l343 344 3-6c15-26 36-47 61-61 3-2 5-3 7-4l-342-344ZM7050 4131c10 10 19 21 26 34 10 17 17 36 20 56l433-219c-10-10-18-22-26-34-10-17-16-36-20-56l-433 219ZM7724 4034c-24 12-50 18-76 18h-9c-5-1-10-1-15-2l39 246 104 16-43-278Zm-39 404 91 581c22-11 48-17 73-17h9c6 0 11 1 17 2l-86-549-104-17ZM7096 4223c2 9 2 17 2 26v8c-1 23-7 45-17 66l245 39 49-94-279-45Zm421 68-48 94 581 93c-1-8-2-16-2-25v-8c1-23 7-46 18-66l-549-88ZM7800 3893c-2 27-10 53-25 75-14 22-35 40-58 52-24 12-51 18-77 17-27-2-53-10-75-25-22-14-40-35-52-58-13-24-18-51-17-77 2-27 10-53 25-75 14-22 35-40 58-53 24-12 51-17 77-16 27 2 53 10 75 25 22 14 40 34 52 58s18 51 17 77ZM8366 4462c-1 27-9 53-24 75s-35 40-59 52c-23 13-50 18-76 17-27-2-53-10-75-25-22-14-41-35-53-58-12-24-17-51-16-77 2-27 10-53 25-75 14-22 34-40 58-52s50-18 77-17c27 2 52 10 75 25 22 14 40 35 52 58 12 24 18 51 16 77ZM8000 5177c-1 27-10 53-24 75-15 22-35 40-59 52-23 12-50 18-77 17-26-2-52-10-74-25-23-14-41-35-53-58-12-24-17-51-16-77 2-27 10-53 24-75 15-22 35-40 59-52 24-13 50-18 77-17 27 2 52 10 75 25 22 14 40 35 52 58 12 24 18 51 16 77ZM7207 5050c-1 27-10 52-24 75-15 22-35 40-59 52s-50 18-77 16c-26-1-52-10-75-24-22-15-40-35-52-59-12-23-18-50-16-77 1-26 10-52 24-74 15-23 35-41 59-53s50-17 77-16c26 1 52 10 74 24 23 15 41 35 53 59s17 50 16 77ZM7083 4256c-1 27-10 53-24 75-15 22-35 40-59 52-24 13-50 18-77 17-27-2-52-10-75-25-22-14-40-35-52-58-12-24-18-51-16-77 1-27 10-53 24-75 15-22 35-40 59-52 23-12 50-18 77-17 26 2 52 10 74 25 23 14 41 35 53 58 12 24 17 51 16 77Z"
         id="path1946" /></g><g
       class="TextShape"
       id="g1960"><path
         class="BoundingBox"
         fill="none"
         d="M9236 3810h13377v1408H9236z"
         id="path1950" /><g
         aria-label="YOUR FEDIVERSE APPLICATION"
         id="text1958"
         class="SVGTextShape"><path
           d="m 9750.2739,4485.3262 126.1402,-248.9717 h 138.1339 l -200.5836,369.3218 V 4841 H 9686.5835 V 4609.812 L 9486,4236.3545 h 138.9609 z"
           style="white-space:pre;fill:#ff9900"
           id="path2100" /><path
           d="m 10639.458,4537.8501 q 0,69.894 -17.37,127.3809 -17.37,57.0732 -52.937,98.4306 -35.154,41.3574 -89.332,63.6905 -54.178,21.9194 -128.208,21.9194 -74.03,0 -128.208,-21.9194 -54.178,-22.3331 -89.746,-63.6905 -35.154,-41.3574 -52.524,-98.8442 -17.37,-57.4868 -17.37,-127.7945 0,-93.8813 30.605,-163.3618 31.018,-69.894 95.122,-108.3564 64.104,-38.4624 162.948,-38.4624 98.431,0 161.708,38.4624 63.69,38.4624 94.294,108.3564 31.018,69.8941 31.018,164.189 z m -441.283,0 q 0,63.2769 15.716,109.1836 16.129,45.4932 50.042,70.3076 33.913,24.4009 87.678,24.4009 54.592,0 88.505,-24.4009 33.913,-24.8144 49.215,-70.3076 15.716,-45.9067 15.716,-109.1836 0,-95.1221 -35.568,-149.7139 -35.567,-54.5918 -117.041,-54.5918 -54.178,0 -88.505,24.8145 -33.913,24.4009 -50.042,70.3076 -15.716,45.4932 -15.716,109.1836 z"
           style="white-space:pre;fill:#ff9900"
           id="path2102" /><path
           d="m 11256.925,4236.3545 v 391.2412 q 0,62.4497 -27.71,112.9058 -27.296,50.0424 -83.128,79.4062 -55.419,29.3638 -139.788,29.3638 -119.937,0 -182.8,-61.209 -62.863,-61.209 -62.863,-162.1211 v -389.5869 h 127.794 v 370.1489 q 0,74.857 30.605,105.0479 30.604,30.1909 90.572,30.1909 42.185,0 68.24,-14.4751 26.469,-14.4751 38.876,-44.666 12.407,-30.1909 12.407,-76.9248 v -369.3218 z"
           style="white-space:pre;fill:#ff9900"
           id="path2104" /><path
           d="m 11581.167,4236.3545 q 82.301,0 135.652,19.8516 53.765,19.8515 79.82,59.9682 26.055,40.1167 26.055,101.3257 0,41.3574 -15.715,72.3755 -15.716,31.0181 -41.358,52.5239 -25.642,21.5059 -55.419,35.1538 L 11888.039,4841 h -142.269 l -144.338,-232.0151 h -68.24 V 4841 h -128.208 v -604.6455 z m -9.099,105.0478 h -38.876 v 163.3619 h 41.358 q 63.69,0 90.986,-21.0923 27.71,-21.5059 27.71,-62.8633 0,-43.0117 -29.778,-61.209 -29.364,-18.1973 -91.4,-18.1973 z"
           style="white-space:pre;fill:#ff9900"
           id="path2106" /><path
           d="m 12310.298,4841 h -126.14 v -604.6455 h 346.575 v 105.0478 h -220.435 v 155.9175 h 205.133 v 104.6343 h -205.133 z"
           style="white-space:pre;fill:#ff9900"
           id="path2108" /><path
           d="m 12997.245,4841 h -348.229 v -604.6455 h 348.229 v 105.0478 h -220.021 v 132.7574 h 204.719 v 105.0478 h -204.719 v 155.9175 h 220.021 z"
           style="white-space:pre;fill:#ff9900"
           id="path2110" /><path
           d="m 13625.051,4532.8872 q 0,102.1528 -39.29,170.8062 -38.876,68.2397 -112.906,102.9799 -74.029,34.3267 -178.25,34.3267 h -171.22 v -604.6455 h 189.831 q 95.122,0 165.016,33.9131 69.894,33.4995 108.356,99.6714 38.463,65.7583 38.463,162.9482 z m -133.171,3.3086 q 0,-66.999 -19.852,-110.0107 -19.438,-43.4253 -57.9,-64.104 -38.049,-20.6788 -94.295,-20.6788 h -68.24 v 393.7227 h 55.006 q 93.881,0 139.374,-50.0425 45.907,-50.0425 45.907,-148.8867 z"
           style="white-space:pre;fill:#ff9900"
           id="path2112" /><path
           d="m 13750.364,4841 v -604.6455 h 128.208 V 4841 Z"
           style="white-space:pre;fill:#ff9900"
           id="path2114" /><path
           d="M 14505.137,4236.3545 14299.59,4841 h -139.788 l -205.133,-604.6455 h 129.449 l 113.733,359.8096 q 2.895,9.0986 9.512,34.3266 6.617,24.8145 13.235,52.9375 7.03,27.7095 9.512,45.9068 2.481,-18.1973 8.685,-45.9068 6.617,-27.7095 12.821,-52.5239 6.617,-25.228 9.512,-34.7402 l 114.56,-359.8096 z"
           style="white-space:pre;fill:#ff9900"
           id="path2116" /><path
           d="m 14929.464,4841 h -348.23 v -604.6455 h 348.23 v 105.0478 h -220.022 v 132.7574 h 204.72 v 105.0478 h -204.72 v 155.9175 h 220.022 z"
           style="white-space:pre;fill:#ff9900"
           id="path2118" /><path
           d="m 15231.787,4236.3545 q 82.301,0 135.652,19.8516 53.765,19.8515 79.82,59.9682 26.055,40.1167 26.055,101.3257 0,41.3574 -15.716,72.3755 -15.716,31.0181 -41.357,52.5239 -25.642,21.5059 -55.419,35.1538 L 15538.659,4841 h -142.27 l -144.337,-232.0151 h -68.24 V 4841 h -128.208 v -604.6455 z m -9.099,105.0478 h -38.876 v 163.3619 h 41.357 q 63.691,0 90.987,-21.0923 27.709,-21.5059 27.709,-62.8633 0,-43.0117 -29.777,-61.209 -29.364,-18.1973 -91.4,-18.1973 z"
           style="white-space:pre;fill:#ff9900"
           id="path2120" /><path
           d="m 15971.671,4673.0889 q 0,53.7646 -26.055,93.4677 -26.055,39.7032 -76.098,61.209 -49.629,21.5059 -120.764,21.5059 -31.431,0 -61.622,-4.1358 -29.778,-4.1357 -57.487,-11.9936 -27.296,-8.2715 -52.11,-20.2651 v -119.1094 q 43.011,19.0244 89.332,34.3266 46.32,15.3023 91.813,15.3023 31.432,0 50.456,-8.2715 19.438,-8.2715 28.123,-22.7466 8.685,-14.4751 8.685,-33.0859 0,-22.7466 -15.302,-38.876 -15.302,-16.1294 -42.184,-30.1909 -26.469,-14.0615 -59.969,-30.1909 -21.092,-9.9258 -45.906,-23.9873 -24.815,-14.4751 -47.148,-35.1538 -22.333,-20.6788 -36.808,-50.0425 -14.062,-29.7774 -14.062,-71.1348 0,-54.1782 24.815,-92.6406 24.814,-38.4624 70.721,-58.7276 46.32,-20.6787 109.184,-20.6787 47.147,0 89.745,11.1665 43.012,10.753 89.746,31.4317 l -41.358,99.6714 q -41.771,-16.9566 -74.856,-26.0552 -33.086,-9.5122 -67.413,-9.5122 -23.987,0 -40.944,7.8579 -16.956,7.4443 -25.642,21.5059 -8.685,13.6479 -8.685,31.8452 0,21.5058 12.408,36.3945 12.82,14.4751 38.048,28.123 25.642,13.648 63.691,31.8453 46.32,21.9194 78.993,45.9067 33.086,23.5737 50.869,55.8325 17.784,31.8452 17.784,79.4063 z"
           style="white-space:pre;fill:#ff9900"
           id="path2122" /><path
           d="m 16429.498,4841 h -348.23 v -604.6455 h 348.23 v 105.0478 h -220.022 v 132.7574 h 204.719 v 105.0478 h -204.719 v 155.9175 h 220.022 z"
           style="white-space:pre;fill:#ff9900"
           id="path2124" /><path
           d="m 17145.808,4841 -43.839,-143.9238 h -220.435 L 16837.695,4841 h -138.133 l 213.404,-607.127 h 156.744 L 17283.942,4841 Z m -74.443,-251.4531 -43.839,-140.6153 q -4.136,-14.0615 -11.167,-35.9809 -6.617,-22.333 -13.648,-45.0796 -6.617,-23.1602 -10.753,-40.1167 -4.135,16.9565 -11.58,42.1846 -7.03,24.8144 -13.648,47.1474 -6.617,22.333 -9.512,31.8452 l -43.425,140.6153 z"
           style="white-space:pre;fill:#ff9900"
           id="path2126" /><path
           d="m 17553.179,4236.3545 q 117.041,0 170.806,50.456 53.765,50.0425 53.765,138.1338 0,39.7032 -11.994,76.0977 -11.994,35.9809 -39.29,64.104 -26.882,28.123 -71.962,44.666 -45.079,16.1294 -111.251,16.1294 h -55.005 V 4841 h -128.208 v -604.6455 z m -6.617,105.0478 h -58.314 v 179.4913 h 42.184 q 35.981,0 62.45,-9.5123 26.469,-9.5122 40.944,-29.7773 14.475,-20.2651 14.475,-52.1103 0,-44.6661 -24.815,-66.1719 -24.814,-21.9195 -76.924,-21.9195 z"
           style="white-space:pre;fill:#ff9900"
           id="path2128" /><path
           d="m 18085.036,4236.3545 q 117.041,0 170.806,50.456 53.764,50.0425 53.764,138.1338 0,39.7032 -11.993,76.0977 -11.994,35.9809 -39.29,64.104 -26.882,28.123 -71.962,44.666 -45.079,16.1294 -111.251,16.1294 h -55.006 V 4841 h -128.208 v -604.6455 z m -6.618,105.0478 h -58.314 v 179.4913 h 42.185 q 35.981,0 62.45,-9.5123 26.469,-9.5122 40.944,-29.7773 14.475,-20.2651 14.475,-52.1103 0,-44.6661 -24.815,-66.1719 -24.814,-21.9195 -76.925,-21.9195 z"
           style="white-space:pre;fill:#ff9900"
           id="path2130" /><path
           d="m 18423.752,4841 v -604.6455 h 128.208 v 498.7705 h 245.249 V 4841 Z"
           style="white-space:pre;fill:#ff9900"
           id="path2132" /><path
           d="m 18902.258,4841 v -604.6455 h 128.208 V 4841 Z"
           style="white-space:pre;fill:#ff9900"
           id="path2134" /><path
           d="m 19439.491,4334.3716 q -36.808,0 -65.345,14.4751 -28.123,14.0615 -47.561,40.9438 -19.024,26.8824 -28.95,64.9312 -9.926,38.0488 -9.926,85.6098 0,64.104 15.716,109.5972 16.129,45.0796 49.629,69.0669 33.499,23.5737 86.437,23.5737 36.808,0 73.616,-8.2714 37.222,-8.2715 80.647,-23.5738 v 107.5293 q -40.117,16.543 -78.993,23.5737 -38.876,7.4444 -87.264,7.4444 -93.468,0 -153.85,-38.4624 -59.968,-38.876 -88.918,-108.3565 -28.95,-69.894 -28.95,-162.9482 0,-68.6533 18.611,-125.7266 18.61,-57.0732 54.591,-98.8442 35.981,-41.771 88.919,-64.5176 52.937,-22.7466 121.591,-22.7466 45.079,0 90.159,11.5801 45.493,11.1665 86.85,31.0181 l -41.357,104.2207 q -33.913,-16.1294 -68.24,-28.1231 -34.326,-11.9936 -67.412,-11.9936 z"
           style="white-space:pre;fill:#ff9900"
           id="path2136" /><path
           d="m 20092.524,4841 -43.839,-143.9238 H 19828.25 L 19784.411,4841 h -138.134 l 213.405,-607.127 h 156.744 L 20230.658,4841 Z m -74.443,-251.4531 -43.839,-140.6153 q -4.136,-14.0615 -11.167,-35.9809 -6.617,-22.333 -13.648,-45.0796 -6.617,-23.1602 -10.753,-40.1167 -4.135,16.9565 -11.58,42.1846 -7.031,24.8144 -13.648,47.1474 -6.617,22.333 -9.512,31.8452 l -43.425,140.6153 z"
           style="white-space:pre;fill:#ff9900"
           id="path2138" /><path
           d="m 20540.012,4841 h -128.208 v -497.9434 h -164.189 v -106.7021 h 456.586 v 106.7021 h -164.189 z"
           style="white-space:pre;fill:#ff9900"
           id="path2140" /><path
           d="m 20797.255,4841 v -604.6455 h 128.208 V 4841 Z"
           style="white-space:pre;fill:#ff9900"
           id="path2142" /><path
           d="m 21626.471,4537.8501 q 0,69.894 -17.37,127.3809 -17.37,57.0732 -52.937,98.4306 -35.154,41.3574 -89.332,63.6905 -54.179,21.9194 -128.208,21.9194 -74.03,0 -128.208,-21.9194 -54.179,-22.3331 -89.746,-63.6905 -35.154,-41.3574 -52.524,-98.8442 -17.37,-57.4868 -17.37,-127.7945 0,-93.8813 30.604,-163.3618 31.018,-69.894 95.122,-108.3564 64.104,-38.4624 162.949,-38.4624 98.43,0 161.707,38.4624 63.691,38.4624 94.295,108.3564 31.018,69.8941 31.018,164.189 z m -441.284,0 q 0,63.2769 15.716,109.1836 16.13,45.4932 50.043,70.3076 33.913,24.4009 87.678,24.4009 54.591,0 88.504,-24.4009 33.914,-24.8144 49.216,-70.3076 15.716,-45.9067 15.716,-109.1836 0,-95.1221 -35.568,-149.7139 -35.567,-54.5918 -117.041,-54.5918 -54.179,0 -88.505,24.8145 -33.913,24.4009 -50.043,70.3076 -15.716,45.4932 -15.716,109.1836 z"
           style="white-space:pre;fill:#ff9900"
           id="path2144" /><path
           d="m 22288.19,4841 h -162.948 l -263.034,-457.4131 h -3.722 q 1.655,28.5366 2.895,57.4868 1.241,28.9502 2.482,57.9004 1.241,28.5366 2.481,57.4868 V 4841 h -114.56 v -604.6455 h 161.708 l 262.619,452.8638 h 2.895 q -0.827,-28.1231 -2.068,-55.8326 -1.24,-27.7094 -2.481,-55.4189 -0.827,-27.7095 -1.654,-55.4189 v -286.1934 h 115.387 z"
           style="white-space:pre;fill:#ff9900"
           id="path2146" /></g></g><g
       class="Graphic"
       id="g1975"><path
         class="BoundingBox"
         fill="none"
         d="M6720 14705h1701v1221H6720z"
         id="path1962" /><defs
         id="defs1967"><clipPath
           id="a"
           clipPathUnits="userSpaceOnUse"><path
             d="M6720 14705h1700v1220H6720v-1220Z"
             id="path1964" /></clipPath></defs><g
         clip-path="url(#a)"
         id="g1973"><path
           fill="#060"
           d="M7412 15481h557c75 0 135-60 135-134v-80c0-73-60-133-135-133H6855c-74 0-135 60-135 133v80c0 74 61 134 135 134h557Z"
           id="path1969" /><path
           fill="#3D4144"
           d="M7414 15926h557c75 0 135-60 135-134v-80c0-73-60-133-135-133H6857c-75 0-135 60-135 133v80c0 74 60 134 135 134h557Z"
           id="path1971" /></g></g><g
       class="Group"
       id="g2037"><g
         class="com.sun.star.drawing.ClosedBezierShape"
         id="g1981"><path
           class="BoundingBox"
           fill="none"
           d="M8613 15232h637v681h-637z"
           id="path1977" /><path
           fill="#333"
           d="M8988 15912c-75 0-141-14-198-41-57-28-100-67-131-118s-46-111-46-181c0-69 15-130 46-181s74-91 131-118 123-41 198-41c102 0 181 18 239 54v178c-29-20-61-35-97-45-36-9-77-14-124-14-61 0-108 15-139 44-32 29-48 70-48 123 0 56 15 97 46 126 30 28 74 42 131 42 28 0 51-4 69-11v-83h-94v-122h278v326c-69 41-156 62-261 62Z"
           id="path1979" /></g><g
         class="com.sun.star.drawing.ClosedBezierShape"
         id="g1987"><path
           class="BoundingBox"
           fill="none"
           d="M9351 15246h584v654h-584z"
           id="path1983" /><path
           fill="#333"
           d="M9351 15246h318c82 0 147 20 194 59 48 40 71 97 71 171 0 49-10 90-31 124s-52 61-91 79l115 219h-208l-99-191h-67v191h-202v-652Zm278 308c31 0 55-6 72-18 18-11 26-31 26-60 0-28-8-48-26-60-17-11-41-17-72-17h-76v155h76Z"
           id="path1985" /></g><g
         class="com.sun.star.drawing.ClosedBezierShape"
         id="g1993"><path
           class="BoundingBox"
           fill="none"
           d="M9999 15232h739v681h-739z"
           id="path1989" /><path
           fill="#333"
           d="M10369 15912c-69 0-131-15-188-43-56-29-100-69-133-120-32-51-48-110-48-177 0-66 16-125 48-177 33-51 77-92 133-120 57-29 119-43 188-43 70 0 132 14 188 43 55 28 99 69 132 120 32 52 48 111 48 177 0 67-16 126-48 177-33 51-77 91-132 120-56 28-118 43-188 43Zm0-181c30 0 58-7 82-19 24-13 44-31 58-55 15-24 22-52 22-85 0-48-16-86-46-114-31-29-69-43-116-43-46 0-85 14-116 43-31 28-47 66-47 114 0 33 7 61 22 85 14 24 34 42 58 55 25 12 53 19 83 19Z"
           id="path1991" /></g><g
         class="com.sun.star.drawing.ClosedBezierShape"
         id="g1999"><path
           class="BoundingBox"
           fill="none"
           d="M10833 15246h640v667h-640z"
           id="path1995" /><path
           fill="#333"
           d="M11153 15912c-72 0-132-13-179-38-48-26-83-61-106-106s-35-96-35-154v-368h202v366c0 40 10 70 30 91 20 20 49 31 88 31 38 0 67-11 87-31 20-21 30-51 30-91v-366h202v368c0 58-11 109-34 154-24 45-59 80-107 106-47 25-107 38-178 38Z"
           id="path1997" /></g><g
         class="com.sun.star.drawing.ClosedBezierShape"
         id="g2005"><path
           class="BoundingBox"
           fill="none"
           d="M11588 15246h613v654h-613z"
           id="path2001" /><path
           fill="#333"
           d="M11588 15246h196c71 114 143 228 214 341v-341h202v652h-196c-71-114-142-228-214-342v342h-202v-652Z"
           id="path2003" /></g><g
         class="com.sun.star.drawing.ClosedBezierShape"
         id="g2011"><path
           class="BoundingBox"
           fill="none"
           d="M12320 15246h629v654h-629z"
           id="path2007" /><path
           fill="#333"
           d="M12320 15246h253c76 0 142 13 198 39s100 64 131 113c31 48 46 105 46 171 0 108-33 190-100 245-67 56-160 84-277 84h-251v-652Zm266 490c50 0 89-15 116-45s40-71 40-122c0-46-13-85-41-115-27-31-65-46-112-46h-67v328h64Z"
           id="path2009" /></g><g
         class="com.sun.star.drawing.ClosedBezierShape"
         id="g2017"><path
           class="BoundingBox"
           fill="none"
           d="M12976 15246h930v654h-930z"
           id="path2013" /><path
           fill="#333"
           d="M12976 15246h209c32 114 63 228 95 341 30-113 61-227 91-341h146l84 342 93-342h211c-61 217-122 435-182 652h-190c-31-116-62-231-93-346-31 115-62 230-93 346h-189c-61-217-121-435-182-652Z"
           id="path2015" /></g><g
         class="com.sun.star.drawing.ClosedBezierShape"
         id="g2023"><path
           class="BoundingBox"
           fill="none"
           d="M13921 15232h738v681h-738z"
           id="path2019" /><path
           fill="#333"
           d="M14290 15912c-69 0-131-15-188-43-56-29-100-69-133-120-32-51-48-110-48-177 0-66 16-125 48-177 33-51 77-92 133-120 57-29 119-43 188-43 70 0 132 14 188 43 55 28 99 69 132 120 32 52 48 111 48 177 0 67-16 126-48 177-33 51-77 91-132 120-56 28-118 43-188 43Zm0-181c30 0 58-7 82-19 24-13 44-31 58-55 15-24 22-52 22-85 0-48-16-86-46-114-31-29-69-43-116-43-46 0-85 14-116 43-31 28-47 66-47 114 0 33 7 61 22 85 14 24 34 42 58 55 25 12 53 19 83 19Z"
           id="path2021" /></g><g
         class="com.sun.star.drawing.ClosedBezierShape"
         id="g2029"><path
           class="BoundingBox"
           fill="none"
           d="M14759 15246h585v654h-585z"
           id="path2025" /><path
           fill="#333"
           d="M14760 15246h318c82 0 147 20 194 59 48 40 71 97 71 171 0 49-10 90-31 124s-52 61-91 79l115 219h-208l-99-191h-67v191h-202v-652Zm278 308c31 0 55-6 72-18 18-11 26-31 26-60 0-28-8-48-26-60-17-11-41-17-72-17h-76v155h76Z"
           id="path2027" /></g><g
         class="com.sun.star.drawing.ClosedBezierShape"
         id="g2035"><path
           class="BoundingBox"
           fill="none"
           d="M15443 15246h671v654h-671z"
           id="path2031" /><path
           fill="#333"
           d="M15443 15246h202v253c70-85 140-169 210-253h239c-88 105-175 211-263 316l282 336h-239c-76-91-152-182-229-273v273h-202v-652Z"
           id="path2033" /></g></g></g></svg>
